info face="Liberation Mono" size=32 bold=0 italic=0 charset="" unicode=0 stretchH=100 smooth=1 aa=1 padding=1,1,1,1 spacing=-2,-2
common lineHeight=37 base=27 scaleW=512 scaleH=512 pages=2 packed=0
page id=0 file="LiberationMono1.png"
page id=1 file="LiberationMono2.png"
chars count=799
char id=32      x=0    y=0    width=0    height=0    xoffset=-1   yoffset=26   xadvance=19   page=0    chnl=0 
char id=33      x=504  y=321  width=5    height=23   xoffset=7    yoffset=5    xadvance=19   page=0    chnl=0 
char id=35      x=124  y=396  width=20   height=23   xoffset=0    yoffset=5    xadvance=19   page=0    chnl=0 
char id=36      x=390  y=158  width=19   height=28   xoffset=0    yoffset=3    xadvance=19   page=0    chnl=0 
char id=37      x=144  y=396  width=22   height=23   xoffset=-1   yoffset=5    xadvance=19   page=0    chnl=0 
char id=38      x=166  y=396  width=20   height=23   xoffset=0    yoffset=5    xadvance=19   page=0    chnl=0 
char id=39      x=504  y=420  width=5    height=12   xoffset=7    yoffset=3    xadvance=19   page=0    chnl=0 
char id=40      x=78   y=0    width=11   height=32   xoffset=4    yoffset=3    xadvance=19   page=0    chnl=0 
char id=41      x=89   y=0    width=11   height=32   xoffset=4    yoffset=3    xadvance=19   page=0    chnl=0 
char id=46      x=505  y=243  width=6    height=7    xoffset=7    yoffset=21   xadvance=19   page=0    chnl=0 
char id=47      x=90   y=295  width=19   height=25   xoffset=0    yoffset=3    xadvance=19   page=0    chnl=0 
char id=48      x=186  y=396  width=17   height=23   xoffset=1    yoffset=5    xadvance=19   page=0    chnl=0 
char id=49      x=203  y=396  width=17   height=23   xoffset=1    yoffset=5    xadvance=19   page=0    chnl=0 
char id=50      x=220  y=396  width=17   height=23   xoffset=1    yoffset=5    xadvance=19   page=0    chnl=0 
char id=51      x=237  y=396  width=18   height=23   xoffset=1    yoffset=5    xadvance=19   page=0    chnl=0 
char id=52      x=255  y=396  width=18   height=23   xoffset=1    yoffset=5    xadvance=19   page=0    chnl=0 
char id=53      x=273  y=396  width=17   height=23   xoffset=1    yoffset=5    xadvance=19   page=0    chnl=0 
char id=54      x=290  y=396  width=17   height=23   xoffset=1    yoffset=5    xadvance=19   page=0    chnl=0 
char id=55      x=307  y=396  width=16   height=23   xoffset=1    yoffset=5    xadvance=19   page=0    chnl=0 
char id=56      x=323  y=396  width=17   height=23   xoffset=1    yoffset=5    xadvance=19   page=0    chnl=0 
char id=57      x=340  y=396  width=17   height=23   xoffset=1    yoffset=5    xadvance=19   page=0    chnl=0 
char id=58      x=498  y=420  width=6    height=19   xoffset=7    yoffset=9    xadvance=19   page=0    chnl=0 
char id=59      x=500  y=37   width=10   height=25   xoffset=4    yoffset=9    xadvance=19   page=0    chnl=0 
char id=60      x=95   y=489  width=18   height=19   xoffset=1    yoffset=7    xadvance=19   page=0    chnl=0 
char id=62      x=113  y=489  width=18   height=19   xoffset=1    yoffset=7    xadvance=19   page=0    chnl=0 
char id=63      x=357  y=396  width=18   height=23   xoffset=0    yoffset=5    xadvance=19   page=0    chnl=0 
char id=64      x=246  y=37   width=20   height=30   xoffset=0    yoffset=3    xadvance=19   page=0    chnl=0 
char id=65      x=375  y=396  width=22   height=23   xoffset=-1   yoffset=5    xadvance=19   page=0    chnl=0 
char id=66      x=397  y=396  width=17   height=23   xoffset=2    yoffset=5    xadvance=19   page=0    chnl=0 
char id=67      x=414  y=396  width=18   height=23   xoffset=1    yoffset=5    xadvance=19   page=0    chnl=0 
char id=68      x=432  y=396  width=17   height=23   xoffset=2    yoffset=5    xadvance=19   page=0    chnl=0 
char id=69      x=449  y=396  width=17   height=23   xoffset=2    yoffset=5    xadvance=19   page=0    chnl=0 
char id=70      x=466  y=396  width=16   height=23   xoffset=2    yoffset=5    xadvance=19   page=0    chnl=0 
char id=71      x=482  y=396  width=18   height=23   xoffset=1    yoffset=5    xadvance=19   page=0    chnl=0 
char id=72      x=0    y=420  width=16   height=23   xoffset=2    yoffset=5    xadvance=19   page=0    chnl=0 
char id=73      x=16   y=420  width=15   height=23   xoffset=2    yoffset=5    xadvance=19   page=0    chnl=0 
char id=74      x=31   y=420  width=15   height=23   xoffset=2    yoffset=5    xadvance=19   page=0    chnl=0 
char id=75      x=46   y=420  width=19   height=23   xoffset=2    yoffset=5    xadvance=19   page=0    chnl=0 
char id=76      x=65   y=420  width=16   height=23   xoffset=3    yoffset=5    xadvance=19   page=0    chnl=0 
char id=77      x=81   y=420  width=17   height=23   xoffset=1    yoffset=5    xadvance=19   page=0    chnl=0 
char id=78      x=98   y=420  width=16   height=23   xoffset=2    yoffset=5    xadvance=19   page=0    chnl=0 
char id=79      x=114  y=420  width=18   height=23   xoffset=1    yoffset=5    xadvance=19   page=0    chnl=0 
char id=80      x=132  y=420  width=17   height=23   xoffset=2    yoffset=5    xadvance=19   page=0    chnl=0 
char id=81      x=285  y=99   width=18   height=29   xoffset=1    yoffset=5    xadvance=19   page=0    chnl=0 
char id=82      x=149  y=420  width=18   height=23   xoffset=2    yoffset=5    xadvance=19   page=0    chnl=0 
char id=83      x=167  y=420  width=19   height=23   xoffset=-1   yoffset=5    xadvance=19   page=0    chnl=0 
char id=84      x=186  y=420  width=19   height=23   xoffset=0    yoffset=5    xadvance=19   page=0    chnl=0 
char id=85      x=205  y=420  width=17   height=23   xoffset=1    yoffset=5    xadvance=19   page=0    chnl=0 
char id=86      x=222  y=420  width=22   height=23   xoffset=-1   yoffset=5    xadvance=19   page=0    chnl=0 
char id=87      x=244  y=420  width=22   height=23   xoffset=-1   yoffset=5    xadvance=19   page=0    chnl=0 
char id=88      x=266  y=420  width=21   height=23   xoffset=-1   yoffset=5    xadvance=19   page=0    chnl=0 
char id=89      x=287  y=420  width=21   height=23   xoffset=-1   yoffset=5    xadvance=19   page=0    chnl=0 
char id=90      x=308  y=420  width=19   height=23   xoffset=0    yoffset=5    xadvance=19   page=0    chnl=0 
char id=91      x=100  y=0    width=11   height=32   xoffset=5    yoffset=3    xadvance=19   page=0    chnl=0 
char id=92      x=109  y=295  width=19   height=25   xoffset=0    yoffset=3    xadvance=19   page=0    chnl=0 
char id=93      x=111  y=0    width=11   height=32   xoffset=3    yoffset=3    xadvance=19   page=0    chnl=0 
char id=97      x=131  y=489  width=18   height=19   xoffset=1    yoffset=9    xadvance=19   page=0    chnl=0 
char id=98      x=128  y=295  width=17   height=25   xoffset=1    yoffset=3    xadvance=19   page=0    chnl=0 
char id=99      x=149  y=489  width=17   height=19   xoffset=1    yoffset=9    xadvance=19   page=0    chnl=0 
char id=100     x=145  y=295  width=17   height=25   xoffset=1    yoffset=3    xadvance=19   page=0    chnl=0 
char id=101     x=166  y=489  width=17   height=19   xoffset=1    yoffset=9    xadvance=19   page=0    chnl=0 
char id=102     x=162  y=295  width=17   height=25   xoffset=1    yoffset=3    xadvance=19   page=0    chnl=0 
char id=103     x=326  y=215  width=17   height=26   xoffset=1    yoffset=9    xadvance=19   page=0    chnl=0 
char id=104     x=179  y=295  width=16   height=25   xoffset=2    yoffset=3    xadvance=19   page=0    chnl=0 
char id=105     x=195  y=295  width=17   height=25   xoffset=1    yoffset=3    xadvance=19   page=0    chnl=0 
char id=106     x=122  y=0    width=13   height=32   xoffset=1    yoffset=3    xadvance=19   page=0    chnl=0 
char id=107     x=212  y=295  width=17   height=25   xoffset=3    yoffset=3    xadvance=19   page=0    chnl=0 
char id=108     x=229  y=295  width=17   height=25   xoffset=1    yoffset=3    xadvance=19   page=0    chnl=0 
char id=109     x=183  y=489  width=19   height=19   xoffset=0    yoffset=9    xadvance=19   page=0    chnl=0 
char id=110     x=202  y=489  width=17   height=19   xoffset=1    yoffset=9    xadvance=19   page=0    chnl=0 
char id=111     x=219  y=489  width=17   height=19   xoffset=1    yoffset=9    xadvance=19   page=0    chnl=0 
char id=112     x=343  y=215  width=17   height=26   xoffset=1    yoffset=9    xadvance=19   page=0    chnl=0 
char id=113     x=360  y=215  width=17   height=26   xoffset=1    yoffset=9    xadvance=19   page=0    chnl=0 
char id=114     x=236  y=489  width=15   height=19   xoffset=3    yoffset=9    xadvance=19   page=0    chnl=0 
char id=115     x=251  y=489  width=16   height=19   xoffset=1    yoffset=9    xadvance=19   page=0    chnl=0 
char id=116     x=327  y=420  width=15   height=23   xoffset=2    yoffset=5    xadvance=19   page=0    chnl=0 
char id=117     x=267  y=489  width=17   height=19   xoffset=2    yoffset=9    xadvance=19   page=0    chnl=0 
char id=118     x=284  y=489  width=20   height=19   xoffset=0    yoffset=9    xadvance=19   page=0    chnl=0 
char id=119     x=304  y=489  width=21   height=19   xoffset=-1   yoffset=9    xadvance=19   page=0    chnl=0 
char id=120     x=325  y=489  width=19   height=19   xoffset=0    yoffset=9    xadvance=19   page=0    chnl=0 
char id=121     x=377  y=215  width=20   height=26   xoffset=0    yoffset=9    xadvance=19   page=0    chnl=0 
char id=122     x=344  y=489  width=16   height=19   xoffset=1    yoffset=9    xadvance=19   page=0    chnl=0 
char id=123     x=135  y=0    width=16   height=32   xoffset=2    yoffset=3    xadvance=19   page=0    chnl=0 
char id=124     x=151  y=0    width=5    height=32   xoffset=7    yoffset=3    xadvance=19   page=0    chnl=0 
char id=125     x=156  y=0    width=15   height=32   xoffset=2    yoffset=3    xadvance=19   page=0    chnl=0 
char id=160     x=0    y=0    width=0    height=0    xoffset=-1   yoffset=26   xadvance=19   page=0    chnl=0 
char id=161     x=500  y=396  width=5    height=23   xoffset=7    yoffset=9    xadvance=19   page=0    chnl=0 
char id=162     x=108  y=371  width=18   height=24   xoffset=1    yoffset=5    xadvance=19   page=0    chnl=0 
char id=163     x=342  y=420  width=20   height=23   xoffset=0    yoffset=5    xadvance=19   page=0    chnl=0 
char id=165     x=362  y=420  width=21   height=23   xoffset=-1   yoffset=5    xadvance=19   page=0    chnl=0 
char id=166     x=171  y=0    width=5    height=32   xoffset=7    yoffset=3    xadvance=19   page=0    chnl=0 
char id=167     x=409  y=158  width=17   height=28   xoffset=1    yoffset=3    xadvance=19   page=0    chnl=0 
char id=169     x=397  y=215  width=21   height=26   xoffset=-1   yoffset=1    xadvance=19   page=0    chnl=0 
char id=174     x=418  y=215  width=21   height=26   xoffset=-1   yoffset=1    xadvance=19   page=0    chnl=0 
char id=177     x=19   y=489  width=18   height=21   xoffset=1    yoffset=7    xadvance=19   page=0    chnl=0 
char id=181     x=246  y=295  width=18   height=25   xoffset=1    yoffset=9    xadvance=19   page=0    chnl=0 
char id=182     x=303  y=99   width=17   height=29   xoffset=0    yoffset=5    xadvance=19   page=0    chnl=0 
char id=183     x=505  y=243  width=6    height=7    xoffset=7    yoffset=15   xadvance=19   page=0    chnl=0 
char id=188     x=126  y=371  width=21   height=24   xoffset=-1   yoffset=4    xadvance=19   page=0    chnl=0 
char id=189     x=383  y=420  width=21   height=23   xoffset=-1   yoffset=5    xadvance=19   page=0    chnl=0 
char id=190     x=147  y=371  width=22   height=24   xoffset=-1   yoffset=4    xadvance=19   page=0    chnl=0 
char id=191     x=404  y=420  width=18   height=23   xoffset=1    yoffset=9    xadvance=19   page=0    chnl=0 
char id=192     x=320  y=99   width=22   height=29   xoffset=-1   yoffset=-1   xadvance=19   page=0    chnl=0 
char id=193     x=342  y=99   width=22   height=29   xoffset=-1   yoffset=-1   xadvance=19   page=0    chnl=0 
char id=194     x=364  y=99   width=22   height=29   xoffset=-2   yoffset=-1   xadvance=19   page=0    chnl=0 
char id=195     x=386  y=99   width=22   height=29   xoffset=-1   yoffset=-1   xadvance=19   page=0    chnl=0 
char id=196     x=18   y=215  width=23   height=27   xoffset=-2   yoffset=1    xadvance=19   page=0    chnl=0 
char id=197     x=426  y=158  width=22   height=28   xoffset=-1   yoffset=0    xadvance=19   page=0    chnl=0 
char id=198     x=422  y=420  width=22   height=23   xoffset=-2   yoffset=5    xadvance=19   page=0    chnl=0 
char id=199     x=266  y=37   width=18   height=30   xoffset=1    yoffset=5    xadvance=19   page=0    chnl=0 
char id=200     x=408  y=99   width=17   height=29   xoffset=2    yoffset=-1   xadvance=19   page=0    chnl=0 
char id=201     x=425  y=99   width=17   height=29   xoffset=2    yoffset=-1   xadvance=19   page=0    chnl=0 
char id=202     x=442  y=99   width=17   height=29   xoffset=2    yoffset=-1   xadvance=19   page=0    chnl=0 
char id=203     x=41   y=215  width=17   height=27   xoffset=2    yoffset=1    xadvance=19   page=0    chnl=0 
char id=204     x=496  y=69   width=15   height=29   xoffset=2    yoffset=-1   xadvance=19   page=0    chnl=0 
char id=205     x=459  y=99   width=15   height=29   xoffset=2    yoffset=-1   xadvance=19   page=0    chnl=0 
char id=206     x=474  y=99   width=15   height=29   xoffset=2    yoffset=-1   xadvance=19   page=0    chnl=0 
char id=207     x=58   y=215  width=15   height=27   xoffset=2    yoffset=1    xadvance=19   page=0    chnl=0 
char id=208     x=444  y=420  width=19   height=23   xoffset=0    yoffset=5    xadvance=19   page=0    chnl=0 
char id=209     x=489  y=99   width=16   height=29   xoffset=2    yoffset=-1   xadvance=19   page=0    chnl=0 
char id=210     x=0    y=129  width=18   height=29   xoffset=1    yoffset=-1   xadvance=19   page=0    chnl=0 
char id=211     x=18   y=129  width=18   height=29   xoffset=1    yoffset=-1   xadvance=19   page=0    chnl=0 
char id=212     x=36   y=129  width=18   height=29   xoffset=1    yoffset=-1   xadvance=19   page=0    chnl=0 
char id=213     x=54   y=129  width=18   height=29   xoffset=1    yoffset=-1   xadvance=19   page=0    chnl=0 
char id=214     x=448  y=158  width=18   height=28   xoffset=1    yoffset=0    xadvance=19   page=0    chnl=0 
char id=216     x=264  y=295  width=20   height=25   xoffset=0    yoffset=4    xadvance=19   page=0    chnl=0 
char id=217     x=72   y=129  width=17   height=29   xoffset=1    yoffset=-1   xadvance=19   page=0    chnl=0 
char id=218     x=89   y=129  width=17   height=29   xoffset=1    yoffset=-1   xadvance=19   page=0    chnl=0 
char id=219     x=106  y=129  width=17   height=29   xoffset=1    yoffset=-1   xadvance=19   page=0    chnl=0 
char id=220     x=466  y=158  width=17   height=28   xoffset=1    yoffset=0    xadvance=19   page=0    chnl=0 
char id=221     x=123  y=129  width=21   height=29   xoffset=-1   yoffset=-1   xadvance=19   page=0    chnl=0 
char id=222     x=463  y=420  width=17   height=23   xoffset=2    yoffset=5    xadvance=19   page=0    chnl=0 
char id=223     x=284  y=295  width=18   height=25   xoffset=1    yoffset=3    xadvance=19   page=0    chnl=0 
char id=224     x=302  y=295  width=18   height=25   xoffset=1    yoffset=3    xadvance=19   page=0    chnl=0 
char id=225     x=320  y=295  width=18   height=25   xoffset=1    yoffset=3    xadvance=19   page=0    chnl=0 
char id=226     x=338  y=295  width=18   height=25   xoffset=1    yoffset=3    xadvance=19   page=0    chnl=0 
char id=227     x=356  y=295  width=18   height=25   xoffset=1    yoffset=3    xadvance=19   page=0    chnl=0 
char id=228     x=169  y=371  width=18   height=24   xoffset=1    yoffset=4    xadvance=19   page=0    chnl=0 
char id=229     x=73   y=215  width=18   height=27   xoffset=1    yoffset=1    xadvance=19   page=0    chnl=0 
char id=230     x=360  y=489  width=21   height=19   xoffset=0    yoffset=9    xadvance=19   page=0    chnl=0 
char id=231     x=439  y=215  width=18   height=26   xoffset=1    yoffset=9    xadvance=19   page=0    chnl=0 
char id=232     x=374  y=295  width=17   height=25   xoffset=1    yoffset=3    xadvance=19   page=0    chnl=0 
char id=233     x=391  y=295  width=17   height=25   xoffset=1    yoffset=3    xadvance=19   page=0    chnl=0 
char id=234     x=408  y=295  width=17   height=25   xoffset=1    yoffset=3    xadvance=19   page=0    chnl=0 
char id=235     x=187  y=371  width=17   height=24   xoffset=1    yoffset=4    xadvance=19   page=0    chnl=0 
char id=236     x=425  y=295  width=17   height=25   xoffset=1    yoffset=3    xadvance=19   page=0    chnl=0 
char id=237     x=442  y=295  width=17   height=25   xoffset=1    yoffset=3    xadvance=19   page=0    chnl=0 
char id=238     x=459  y=295  width=17   height=25   xoffset=1    yoffset=3    xadvance=19   page=0    chnl=0 
char id=239     x=204  y=371  width=17   height=24   xoffset=1    yoffset=4    xadvance=19   page=0    chnl=0 
char id=240     x=457  y=215  width=17   height=26   xoffset=1    yoffset=2    xadvance=19   page=0    chnl=0 
char id=241     x=476  y=295  width=17   height=25   xoffset=1    yoffset=3    xadvance=19   page=0    chnl=0 
char id=242     x=493  y=295  width=17   height=25   xoffset=1    yoffset=3    xadvance=19   page=0    chnl=0 
char id=243     x=0    y=321  width=17   height=25   xoffset=1    yoffset=3    xadvance=19   page=0    chnl=0 
char id=244     x=17   y=321  width=17   height=25   xoffset=1    yoffset=3    xadvance=19   page=0    chnl=0 
char id=245     x=34   y=321  width=17   height=25   xoffset=1    yoffset=3    xadvance=19   page=0    chnl=0 
char id=246     x=221  y=371  width=17   height=24   xoffset=1    yoffset=4    xadvance=19   page=0    chnl=0 
char id=248     x=381  y=489  width=18   height=19   xoffset=1    yoffset=9    xadvance=19   page=0    chnl=0 
char id=249     x=51   y=321  width=17   height=25   xoffset=2    yoffset=3    xadvance=19   page=0    chnl=0 
char id=250     x=68   y=321  width=17   height=25   xoffset=2    yoffset=3    xadvance=19   page=0    chnl=0 
char id=251     x=85   y=321  width=17   height=25   xoffset=2    yoffset=3    xadvance=19   page=0    chnl=0 
char id=252     x=238  y=371  width=17   height=24   xoffset=2    yoffset=4    xadvance=19   page=0    chnl=0 
char id=253     x=176  y=0    width=20   height=32   xoffset=0    yoffset=3    xadvance=19   page=0    chnl=0 
char id=254     x=196  y=0    width=16   height=32   xoffset=2    yoffset=3    xadvance=19   page=0    chnl=0 
char id=255     x=284  y=37   width=21   height=30   xoffset=-1   yoffset=5    xadvance=19   page=0    chnl=0 
char id=256     x=483  y=158  width=23   height=28   xoffset=-2   yoffset=0    xadvance=19   page=0    chnl=0 
char id=257     x=480  y=420  width=18   height=23   xoffset=1    yoffset=5    xadvance=19   page=0    chnl=0 
char id=258     x=144  y=129  width=22   height=29   xoffset=-1   yoffset=-1   xadvance=19   page=0    chnl=0 
char id=259     x=102  y=321  width=18   height=25   xoffset=1    yoffset=3    xadvance=19   page=0    chnl=0 
char id=260     x=305  y=37   width=23   height=30   xoffset=-2   yoffset=5    xadvance=19   page=0    chnl=0 
char id=261     x=474  y=215  width=18   height=26   xoffset=1    yoffset=9    xadvance=19   page=0    chnl=0 
char id=262     x=166  y=129  width=18   height=29   xoffset=1    yoffset=-1   xadvance=19   page=0    chnl=0 
char id=263     x=120  y=321  width=17   height=25   xoffset=1    yoffset=3    xadvance=19   page=0    chnl=0 
char id=264     x=184  y=129  width=18   height=29   xoffset=1    yoffset=-1   xadvance=19   page=0    chnl=0 
char id=265     x=137  y=321  width=18   height=25   xoffset=1    yoffset=3    xadvance=19   page=0    chnl=0 
char id=266     x=0    y=187  width=19   height=28   xoffset=1    yoffset=0    xadvance=19   page=0    chnl=0 
char id=267     x=155  y=321  width=17   height=25   xoffset=1    yoffset=3    xadvance=19   page=0    chnl=0 
char id=268     x=202  y=129  width=18   height=29   xoffset=1    yoffset=-1   xadvance=19   page=0    chnl=0 
char id=269     x=172  y=321  width=18   height=25   xoffset=1    yoffset=3    xadvance=19   page=0    chnl=0 
char id=270     x=220  y=129  width=17   height=29   xoffset=2    yoffset=-1   xadvance=19   page=0    chnl=0 
char id=271     x=190  y=321  width=21   height=25   xoffset=0    yoffset=3    xadvance=19   page=0    chnl=0 
char id=272     x=444  y=420  width=19   height=23   xoffset=0    yoffset=5    xadvance=19   page=0    chnl=0 
char id=273     x=211  y=321  width=18   height=25   xoffset=1    yoffset=3    xadvance=19   page=0    chnl=0 
char id=274     x=19   y=187  width=17   height=28   xoffset=2    yoffset=0    xadvance=19   page=0    chnl=0 
char id=275     x=0    y=443  width=17   height=23   xoffset=1    yoffset=5    xadvance=19   page=0    chnl=0 
char id=276     x=237  y=129  width=17   height=29   xoffset=2    yoffset=-1   xadvance=19   page=0    chnl=0 
char id=277     x=229  y=321  width=17   height=25   xoffset=1    yoffset=3    xadvance=19   page=0    chnl=0 
char id=278     x=91   y=215  width=17   height=27   xoffset=2    yoffset=1    xadvance=19   page=0    chnl=0 
char id=279     x=246  y=321  width=17   height=25   xoffset=1    yoffset=3    xadvance=19   page=0    chnl=0 
char id=280     x=328  y=37   width=17   height=30   xoffset=2    yoffset=5    xadvance=19   page=0    chnl=0 
char id=281     x=492  y=215  width=17   height=26   xoffset=1    yoffset=9    xadvance=19   page=0    chnl=0 
char id=282     x=254  y=129  width=17   height=29   xoffset=2    yoffset=-1   xadvance=19   page=0    chnl=0 
char id=283     x=263  y=321  width=17   height=25   xoffset=1    yoffset=3    xadvance=19   page=0    chnl=0 
char id=284     x=271  y=129  width=18   height=29   xoffset=1    yoffset=-1   xadvance=19   page=0    chnl=0 
char id=285     x=212  y=0    width=17   height=32   xoffset=1    yoffset=3    xadvance=19   page=0    chnl=0 
char id=286     x=289  y=129  width=18   height=29   xoffset=1    yoffset=-1   xadvance=19   page=0    chnl=0 
char id=287     x=229  y=0    width=17   height=32   xoffset=1    yoffset=3    xadvance=19   page=0    chnl=0 
char id=288     x=36   y=187  width=18   height=28   xoffset=1    yoffset=0    xadvance=19   page=0    chnl=0 
char id=289     x=246  y=0    width=18   height=32   xoffset=1    yoffset=3    xadvance=19   page=0    chnl=0 
char id=290     x=345  y=37   width=18   height=30   xoffset=1    yoffset=5    xadvance=19   page=0    chnl=0 
char id=291     x=264  y=0    width=17   height=32   xoffset=1    yoffset=3    xadvance=19   page=0    chnl=0 
char id=292     x=307  y=129  width=16   height=29   xoffset=2    yoffset=-1   xadvance=19   page=0    chnl=0 
char id=293     x=323  y=129  width=16   height=29   xoffset=2    yoffset=-1   xadvance=19   page=0    chnl=0 
char id=294     x=17   y=443  width=21   height=23   xoffset=0    yoffset=5    xadvance=19   page=0    chnl=0 
char id=295     x=280  y=321  width=18   height=25   xoffset=0    yoffset=3    xadvance=19   page=0    chnl=0 
char id=296     x=339  y=129  width=15   height=29   xoffset=2    yoffset=-1   xadvance=19   page=0    chnl=0 
char id=297     x=298  y=321  width=17   height=25   xoffset=1    yoffset=3    xadvance=19   page=0    chnl=0 
char id=298     x=54   y=187  width=15   height=28   xoffset=2    yoffset=0    xadvance=19   page=0    chnl=0 
char id=299     x=38   y=443  width=17   height=23   xoffset=1    yoffset=5    xadvance=19   page=0    chnl=0 
char id=300     x=354  y=129  width=15   height=29   xoffset=2    yoffset=-1   xadvance=19   page=0    chnl=0 
char id=301     x=315  y=321  width=17   height=25   xoffset=1    yoffset=3    xadvance=19   page=0    chnl=0 
char id=302     x=363  y=37   width=15   height=30   xoffset=2    yoffset=5    xadvance=19   page=0    chnl=0 
char id=303     x=281  y=0    width=17   height=32   xoffset=1    yoffset=3    xadvance=19   page=0    chnl=0 
char id=304     x=108  y=215  width=15   height=27   xoffset=2    yoffset=1    xadvance=19   page=0    chnl=0 
char id=305     x=399  y=489  width=17   height=19   xoffset=1    yoffset=9    xadvance=19   page=0    chnl=0 
char id=306     x=55   y=443  width=19   height=23   xoffset=1    yoffset=5    xadvance=19   page=0    chnl=0 
char id=307     x=298  y=0    width=15   height=32   xoffset=2    yoffset=3    xadvance=19   page=0    chnl=0 
char id=308     x=369  y=129  width=16   height=29   xoffset=1    yoffset=-1   xadvance=19   page=0    chnl=0 
char id=309     x=313  y=0    width=16   height=32   xoffset=1    yoffset=3    xadvance=19   page=0    chnl=0 
char id=310     x=378  y=37   width=19   height=30   xoffset=2    yoffset=5    xadvance=19   page=0    chnl=0 
char id=311     x=329  y=0    width=16   height=32   xoffset=3    yoffset=3    xadvance=19   page=0    chnl=0 
char id=312     x=416  y=489  width=17   height=19   xoffset=3    yoffset=9    xadvance=19   page=0    chnl=0 
char id=313     x=385  y=129  width=16   height=29   xoffset=3    yoffset=-1   xadvance=19   page=0    chnl=0 
char id=314     x=401  y=129  width=17   height=29   xoffset=1    yoffset=-1   xadvance=19   page=0    chnl=0 
char id=315     x=397  y=37   width=16   height=30   xoffset=3    yoffset=5    xadvance=19   page=0    chnl=0 
char id=316     x=345  y=0    width=17   height=32   xoffset=1    yoffset=3    xadvance=19   page=0    chnl=0 
char id=317     x=74   y=443  width=16   height=23   xoffset=3    yoffset=5    xadvance=19   page=0    chnl=0 
char id=318     x=332  y=321  width=19   height=25   xoffset=0    yoffset=3    xadvance=19   page=0    chnl=0 
char id=319     x=90   y=443  width=16   height=23   xoffset=3    yoffset=5    xadvance=19   page=0    chnl=0 
char id=320     x=351  y=321  width=17   height=25   xoffset=1    yoffset=3    xadvance=19   page=0    chnl=0 
char id=321     x=106  y=443  width=19   height=23   xoffset=0    yoffset=5    xadvance=19   page=0    chnl=0 
char id=322     x=368  y=321  width=17   height=25   xoffset=1    yoffset=3    xadvance=19   page=0    chnl=0 
char id=323     x=418  y=129  width=16   height=29   xoffset=2    yoffset=-1   xadvance=19   page=0    chnl=0 
char id=324     x=385  y=321  width=17   height=25   xoffset=1    yoffset=3    xadvance=19   page=0    chnl=0 
char id=325     x=413  y=37   width=16   height=30   xoffset=2    yoffset=5    xadvance=19   page=0    chnl=0 
char id=326     x=0    y=243  width=17   height=26   xoffset=1    yoffset=9    xadvance=19   page=0    chnl=0 
char id=327     x=434  y=129  width=16   height=29   xoffset=2    yoffset=-1   xadvance=19   page=0    chnl=0 
char id=328     x=402  y=321  width=17   height=25   xoffset=1    yoffset=3    xadvance=19   page=0    chnl=0 
char id=329     x=125  y=443  width=21   height=23   xoffset=-1   yoffset=5    xadvance=19   page=0    chnl=0 
char id=330     x=146  y=443  width=18   height=23   xoffset=1    yoffset=5    xadvance=19   page=0    chnl=0 
char id=331     x=17   y=243  width=17   height=26   xoffset=1    yoffset=9    xadvance=19   page=0    chnl=0 
char id=332     x=123  y=215  width=18   height=27   xoffset=1    yoffset=1    xadvance=19   page=0    chnl=0 
char id=333     x=164  y=443  width=17   height=23   xoffset=1    yoffset=5    xadvance=19   page=0    chnl=0 
char id=334     x=450  y=129  width=18   height=29   xoffset=1    yoffset=-1   xadvance=19   page=0    chnl=0 
char id=335     x=419  y=321  width=17   height=25   xoffset=1    yoffset=3    xadvance=19   page=0    chnl=0 
char id=336     x=468  y=129  width=18   height=29   xoffset=1    yoffset=-1   xadvance=19   page=0    chnl=0 
char id=337     x=436  y=321  width=17   height=25   xoffset=1    yoffset=3    xadvance=19   page=0    chnl=0 
char id=338     x=181  y=443  width=21   height=23   xoffset=0    yoffset=5    xadvance=19   page=0    chnl=0 
char id=339     x=433  y=489  width=21   height=19   xoffset=0    yoffset=9    xadvance=19   page=0    chnl=0 
char id=340     x=486  y=129  width=18   height=29   xoffset=2    yoffset=-1   xadvance=19   page=0    chnl=0 
char id=341     x=453  y=321  width=15   height=25   xoffset=3    yoffset=3    xadvance=19   page=0    chnl=0 
char id=342     x=429  y=37   width=18   height=30   xoffset=2    yoffset=5    xadvance=19   page=0    chnl=0 
char id=343     x=34   y=243  width=16   height=26   xoffset=2    yoffset=9    xadvance=19   page=0    chnl=0 
char id=344     x=0    y=158  width=18   height=29   xoffset=2    yoffset=-1   xadvance=19   page=0    chnl=0 
char id=345     x=468  y=321  width=15   height=25   xoffset=3    yoffset=3    xadvance=19   page=0    chnl=0 
char id=346     x=18   y=158  width=19   height=29   xoffset=-1   yoffset=-1   xadvance=19   page=0    chnl=0 
char id=347     x=483  y=321  width=16   height=25   xoffset=1    yoffset=3    xadvance=19   page=0    chnl=0 
char id=348     x=37   y=158  width=19   height=29   xoffset=-1   yoffset=-1   xadvance=19   page=0    chnl=0 
char id=349     x=0    y=346  width=16   height=25   xoffset=1    yoffset=3    xadvance=19   page=0    chnl=0 
char id=350     x=447  y=37   width=19   height=30   xoffset=-1   yoffset=5    xadvance=19   page=0    chnl=0 
char id=351     x=50   y=243  width=16   height=26   xoffset=1    yoffset=9    xadvance=19   page=0    chnl=0 
char id=352     x=56   y=158  width=19   height=29   xoffset=-1   yoffset=-1   xadvance=19   page=0    chnl=0 
char id=353     x=16   y=346  width=16   height=25   xoffset=1    yoffset=3    xadvance=19   page=0    chnl=0 
char id=354     x=466  y=37   width=19   height=30   xoffset=0    yoffset=5    xadvance=19   page=0    chnl=0 
char id=355     x=485  y=37   width=15   height=30   xoffset=2    yoffset=5    xadvance=19   page=0    chnl=0 
char id=356     x=75   y=158  width=19   height=29   xoffset=0    yoffset=-1   xadvance=19   page=0    chnl=0 
char id=357     x=32   y=346  width=20   height=25   xoffset=1    yoffset=3    xadvance=19   page=0    chnl=0 
char id=358     x=202  y=443  width=19   height=23   xoffset=0    yoffset=5    xadvance=19   page=0    chnl=0 
char id=359     x=221  y=443  width=15   height=23   xoffset=2    yoffset=5    xadvance=19   page=0    chnl=0 
char id=360     x=94   y=158  width=17   height=29   xoffset=1    yoffset=-1   xadvance=19   page=0    chnl=0 
char id=361     x=52   y=346  width=17   height=25   xoffset=2    yoffset=3    xadvance=19   page=0    chnl=0 
char id=362     x=141  y=215  width=17   height=27   xoffset=1    yoffset=1    xadvance=19   page=0    chnl=0 
char id=363     x=236  y=443  width=17   height=23   xoffset=2    yoffset=5    xadvance=19   page=0    chnl=0 
char id=364     x=111  y=158  width=17   height=29   xoffset=1    yoffset=-1   xadvance=19   page=0    chnl=0 
char id=365     x=69   y=346  width=17   height=25   xoffset=2    yoffset=3    xadvance=19   page=0    chnl=0 
char id=366     x=128  y=158  width=17   height=29   xoffset=1    yoffset=-1   xadvance=19   page=0    chnl=0 
char id=367     x=158  y=215  width=17   height=27   xoffset=2    yoffset=1    xadvance=19   page=0    chnl=0 
char id=368     x=145  y=158  width=17   height=29   xoffset=1    yoffset=-1   xadvance=19   page=0    chnl=0 
char id=369     x=86   y=346  width=17   height=25   xoffset=2    yoffset=3    xadvance=19   page=0    chnl=0 
char id=370     x=0    y=69   width=17   height=30   xoffset=1    yoffset=5    xadvance=19   page=0    chnl=0 
char id=371     x=66   y=243  width=16   height=26   xoffset=2    yoffset=9    xadvance=19   page=0    chnl=0 
char id=372     x=162  y=158  width=22   height=29   xoffset=-2   yoffset=-1   xadvance=19   page=0    chnl=0 
char id=373     x=103  y=346  width=22   height=25   xoffset=-2   yoffset=3    xadvance=19   page=0    chnl=0 
char id=374     x=184  y=158  width=20   height=29   xoffset=-1   yoffset=-1   xadvance=19   page=0    chnl=0 
char id=375     x=362  y=0    width=20   height=32   xoffset=-1   yoffset=3    xadvance=19   page=0    chnl=0 
char id=376     x=175  y=215  width=21   height=27   xoffset=-1   yoffset=1    xadvance=19   page=0    chnl=0 
char id=377     x=204  y=158  width=19   height=29   xoffset=0    yoffset=-1   xadvance=19   page=0    chnl=0 
char id=378     x=125  y=346  width=16   height=25   xoffset=1    yoffset=3    xadvance=19   page=0    chnl=0 
char id=379     x=196  y=215  width=19   height=27   xoffset=0    yoffset=1    xadvance=19   page=0    chnl=0 
char id=380     x=141  y=346  width=16   height=25   xoffset=1    yoffset=3    xadvance=19   page=0    chnl=0 
char id=381     x=223  y=158  width=19   height=29   xoffset=0    yoffset=-1   xadvance=19   page=0    chnl=0 
char id=382     x=157  y=346  width=16   height=25   xoffset=1    yoffset=3    xadvance=19   page=0    chnl=0 
char id=383     x=173  y=346  width=13   height=25   xoffset=5    yoffset=3    xadvance=19   page=0    chnl=0 
char id=884     x=504  y=129  width=7    height=7    xoffset=3    yoffset=3    xadvance=0    page=0    chnl=0 
char id=890     x=505  y=269  width=6    height=7    xoffset=3    yoffset=28   xadvance=0    page=0    chnl=0 
char id=891     x=454  y=489  width=17   height=19   xoffset=1    yoffset=9    xadvance=19   page=0    chnl=0 
char id=892     x=471  y=489  width=17   height=19   xoffset=1    yoffset=9    xadvance=19   page=0    chnl=0 
char id=893     x=488  y=489  width=17   height=19   xoffset=1    yoffset=9    xadvance=19   page=0    chnl=0 
char id=894     x=500  y=37   width=10   height=25   xoffset=4    yoffset=9    xadvance=19   page=0    chnl=0 
char id=902     x=253  y=443  width=23   height=23   xoffset=-1   yoffset=5    xadvance=19   page=0    chnl=0 
char id=903     x=505  y=243  width=6    height=7    xoffset=7    yoffset=15   xadvance=19   page=0    chnl=0 
char id=904     x=276  y=443  width=22   height=23   xoffset=-2   yoffset=5    xadvance=19   page=0    chnl=0 
char id=905     x=298  y=443  width=20   height=23   xoffset=-1   yoffset=5    xadvance=19   page=0    chnl=0 
char id=906     x=318  y=443  width=20   height=23   xoffset=0    yoffset=5    xadvance=19   page=0    chnl=0 
char id=908     x=338  y=443  width=22   height=23   xoffset=-2   yoffset=5    xadvance=19   page=0    chnl=0 
char id=910     x=360  y=443  width=22   height=23   xoffset=-1   yoffset=5    xadvance=19   page=0    chnl=0 
char id=911     x=382  y=443  width=21   height=23   xoffset=-2   yoffset=5    xadvance=19   page=0    chnl=0 
char id=912     x=215  y=215  width=18   height=27   xoffset=1    yoffset=1    xadvance=19   page=0    chnl=0 
char id=913     x=375  y=396  width=22   height=23   xoffset=-1   yoffset=5    xadvance=19   page=0    chnl=0 
char id=914     x=397  y=396  width=17   height=23   xoffset=2    yoffset=5    xadvance=19   page=0    chnl=0 
char id=915     x=403  y=443  width=16   height=23   xoffset=2    yoffset=5    xadvance=19   page=0    chnl=0 
char id=916     x=419  y=443  width=21   height=23   xoffset=0    yoffset=5    xadvance=19   page=0    chnl=0 
char id=917     x=449  y=396  width=17   height=23   xoffset=2    yoffset=5    xadvance=19   page=0    chnl=0 
char id=918     x=308  y=420  width=19   height=23   xoffset=0    yoffset=5    xadvance=19   page=0    chnl=0 
char id=919     x=0    y=420  width=16   height=23   xoffset=2    yoffset=5    xadvance=19   page=0    chnl=0 
char id=920     x=440  y=443  width=18   height=23   xoffset=1    yoffset=5    xadvance=19   page=0    chnl=0 
char id=921     x=16   y=420  width=15   height=23   xoffset=2    yoffset=5    xadvance=19   page=0    chnl=0 
char id=922     x=46   y=420  width=19   height=23   xoffset=2    yoffset=5    xadvance=19   page=0    chnl=0 
char id=923     x=458  y=443  width=22   height=23   xoffset=-1   yoffset=5    xadvance=19   page=0    chnl=0 
char id=924     x=81   y=420  width=17   height=23   xoffset=1    yoffset=5    xadvance=19   page=0    chnl=0 
char id=925     x=98   y=420  width=16   height=23   xoffset=2    yoffset=5    xadvance=19   page=0    chnl=0 
char id=926     x=480  y=443  width=17   height=23   xoffset=1    yoffset=5    xadvance=19   page=0    chnl=0 
char id=927     x=114  y=420  width=18   height=23   xoffset=1    yoffset=5    xadvance=19   page=0    chnl=0 
char id=928     x=0    y=466  width=16   height=23   xoffset=2    yoffset=5    xadvance=19   page=0    chnl=0 
char id=929     x=132  y=420  width=17   height=23   xoffset=2    yoffset=5    xadvance=19   page=0    chnl=0 
char id=931     x=16   y=466  width=19   height=23   xoffset=1    yoffset=5    xadvance=19   page=0    chnl=0 
char id=932     x=186  y=420  width=19   height=23   xoffset=0    yoffset=5    xadvance=19   page=0    chnl=0 
char id=933     x=287  y=420  width=21   height=23   xoffset=-1   yoffset=5    xadvance=19   page=0    chnl=0 
char id=934     x=35   y=466  width=21   height=23   xoffset=0    yoffset=5    xadvance=19   page=0    chnl=0 
char id=935     x=266  y=420  width=21   height=23   xoffset=-1   yoffset=5    xadvance=19   page=0    chnl=0 
char id=936     x=56   y=466  width=20   height=23   xoffset=0    yoffset=5    xadvance=19   page=0    chnl=0 
char id=937     x=76   y=466  width=20   height=23   xoffset=0    yoffset=5    xadvance=19   page=0    chnl=0 
char id=938     x=69   y=187  width=15   height=28   xoffset=2    yoffset=0    xadvance=19   page=0    chnl=0 
char id=939     x=84   y=187  width=21   height=28   xoffset=0    yoffset=0    xadvance=19   page=0    chnl=0 
char id=940     x=82   y=243  width=19   height=26   xoffset=1    yoffset=2    xadvance=19   page=0    chnl=0 
char id=941     x=101  y=243  width=17   height=26   xoffset=2    yoffset=2    xadvance=19   page=0    chnl=0 
char id=942     x=382  y=0    width=17   height=32   xoffset=1    yoffset=3    xadvance=19   page=0    chnl=0 
char id=943     x=118  y=243  width=18   height=26   xoffset=1    yoffset=2    xadvance=19   page=0    chnl=0 
char id=944     x=233  y=215  width=17   height=27   xoffset=2    yoffset=1    xadvance=19   page=0    chnl=0 
char id=946     x=399  y=0    width=17   height=32   xoffset=2    yoffset=3    xadvance=19   page=0    chnl=0 
char id=947     x=136  y=243  width=21   height=26   xoffset=-1   yoffset=9    xadvance=19   page=0    chnl=0 
char id=948     x=186  y=346  width=18   height=25   xoffset=1    yoffset=3    xadvance=19   page=0    chnl=0 
char id=950     x=91   y=37   width=17   height=31   xoffset=2    yoffset=3    xadvance=19   page=0    chnl=0 
char id=951     x=157  y=243  width=17   height=26   xoffset=1    yoffset=9    xadvance=19   page=0    chnl=0 
char id=952     x=204  y=346  width=16   height=25   xoffset=1    yoffset=3    xadvance=19   page=0    chnl=0 
char id=955     x=220  y=346  width=19   height=25   xoffset=0    yoffset=3    xadvance=19   page=0    chnl=0 
char id=956     x=174  y=243  width=18   height=26   xoffset=1    yoffset=9    xadvance=19   page=0    chnl=0 
char id=958     x=108  y=37   width=16   height=31   xoffset=2    yoffset=3    xadvance=19   page=0    chnl=0 
char id=961     x=192  y=243  width=17   height=26   xoffset=1    yoffset=9    xadvance=19   page=0    chnl=0 
char id=962     x=239  y=346  width=16   height=25   xoffset=2    yoffset=9    xadvance=19   page=0    chnl=0 
char id=966     x=250  y=215  width=20   height=27   xoffset=0    yoffset=8    xadvance=19   page=0    chnl=0 
char id=967     x=209  y=243  width=21   height=26   xoffset=-1   yoffset=9    xadvance=19   page=0    chnl=0 
char id=968     x=17   y=69   width=19   height=30   xoffset=0    yoffset=5    xadvance=19   page=0    chnl=0 
char id=969     x=55   y=489  width=20   height=20   xoffset=0    yoffset=8    xadvance=19   page=0    chnl=0 
char id=970     x=255  y=371  width=18   height=24   xoffset=1    yoffset=4    xadvance=19   page=0    chnl=0 
char id=971     x=273  y=371  width=17   height=24   xoffset=2    yoffset=4    xadvance=19   page=0    chnl=0 
char id=972     x=230  y=243  width=17   height=26   xoffset=1    yoffset=2    xadvance=19   page=0    chnl=0 
char id=973     x=247  y=243  width=17   height=26   xoffset=2    yoffset=2    xadvance=19   page=0    chnl=0 
char id=974     x=264  y=243  width=20   height=26   xoffset=0    yoffset=2    xadvance=19   page=0    chnl=0 
char id=976     x=255  y=346  width=17   height=25   xoffset=1    yoffset=3    xadvance=19   page=0    chnl=0 
char id=977     x=272  y=346  width=20   height=25   xoffset=0    yoffset=3    xadvance=19   page=0    chnl=0 
char id=978     x=96   y=466  width=24   height=23   xoffset=-1   yoffset=5    xadvance=19   page=0    chnl=0 
char id=979     x=292  y=346  width=30   height=25   xoffset=-7   yoffset=3    xadvance=19   page=0    chnl=0 
char id=980     x=105  y=187  width=24   height=28   xoffset=-2   yoffset=0    xadvance=19   page=0    chnl=0 
char id=981     x=416  y=0    width=17   height=32   xoffset=1    yoffset=3    xadvance=19   page=0    chnl=0 
char id=983     x=284  y=243  width=21   height=26   xoffset=0    yoffset=9    xadvance=19   page=0    chnl=0 
char id=984     x=36   y=69   width=18   height=30   xoffset=1    yoffset=5    xadvance=19   page=0    chnl=0 
char id=985     x=305  y=243  width=18   height=26   xoffset=1    yoffset=9    xadvance=19   page=0    chnl=0 
char id=986     x=120  y=466  width=18   height=23   xoffset=1    yoffset=5    xadvance=19   page=0    chnl=0 
char id=987     x=323  y=243  width=17   height=26   xoffset=1    yoffset=9    xadvance=19   page=0    chnl=0 
char id=988     x=138  y=466  width=16   height=23   xoffset=2    yoffset=5    xadvance=19   page=0    chnl=0 
char id=989     x=340  y=243  width=15   height=26   xoffset=3    yoffset=9    xadvance=19   page=0    chnl=0 
char id=990     x=322  y=346  width=23   height=25   xoffset=-2   yoffset=3    xadvance=19   page=0    chnl=0 
char id=991     x=290  y=371  width=18   height=24   xoffset=1    yoffset=4    xadvance=19   page=0    chnl=0 
char id=992     x=54   y=69   width=20   height=30   xoffset=-1   yoffset=5    xadvance=19   page=0    chnl=0 
char id=993     x=59   y=0    width=19   height=33   xoffset=-1   yoffset=2    xadvance=19   page=0    chnl=0 
char id=994     x=74   y=69   width=19   height=30   xoffset=0    yoffset=5    xadvance=19   page=0    chnl=0 
char id=995     x=355  y=243  width=18   height=26   xoffset=1    yoffset=9    xadvance=19   page=0    chnl=0 
char id=996     x=154  y=466  width=17   height=23   xoffset=1    yoffset=5    xadvance=19   page=0    chnl=0 
char id=997     x=171  y=466  width=17   height=23   xoffset=1    yoffset=5    xadvance=19   page=0    chnl=0 
char id=998     x=93   y=69   width=17   height=30   xoffset=2    yoffset=5    xadvance=19   page=0    chnl=0 
char id=999     x=37   y=489  width=18   height=21   xoffset=0    yoffset=7    xadvance=19   page=0    chnl=0 
char id=1000    x=188  y=466  width=18   height=23   xoffset=0    yoffset=5    xadvance=19   page=0    chnl=0 
char id=1001    x=206  y=466  width=18   height=23   xoffset=1    yoffset=5    xadvance=19   page=0    chnl=0 
char id=1002    x=308  y=371  width=21   height=24   xoffset=-1   yoffset=4    xadvance=19   page=0    chnl=0 
char id=1004    x=224  y=466  width=18   height=23   xoffset=1    yoffset=5    xadvance=19   page=0    chnl=0 
char id=1006    x=242  y=466  width=18   height=23   xoffset=1    yoffset=5    xadvance=19   page=0    chnl=0 
char id=1007    x=270  y=215  width=17   height=27   xoffset=1    yoffset=2    xadvance=19   page=0    chnl=0 
char id=1009    x=373  y=243  width=17   height=26   xoffset=1    yoffset=9    xadvance=19   page=0    chnl=0 
char id=1011    x=122  y=0    width=13   height=32   xoffset=1    yoffset=3    xadvance=19   page=0    chnl=0 
char id=1012    x=260  y=466  width=18   height=23   xoffset=1    yoffset=5    xadvance=19   page=0    chnl=0 
char id=1015    x=463  y=420  width=17   height=23   xoffset=2    yoffset=5    xadvance=19   page=0    chnl=0 
char id=1016    x=196  y=0    width=16   height=32   xoffset=2    yoffset=3    xadvance=19   page=0    chnl=0 
char id=1017    x=414  y=396  width=18   height=23   xoffset=1    yoffset=5    xadvance=19   page=0    chnl=0 
char id=1018    x=278  y=466  width=17   height=23   xoffset=1    yoffset=5    xadvance=19   page=0    chnl=0 
char id=1019    x=390  y=243  width=18   height=26   xoffset=1    yoffset=9    xadvance=19   page=0    chnl=0 
char id=1020    x=408  y=243  width=18   height=26   xoffset=0    yoffset=9    xadvance=19   page=0    chnl=0 
char id=1021    x=295  y=466  width=18   height=23   xoffset=0    yoffset=5    xadvance=19   page=0    chnl=0 
char id=1022    x=313  y=466  width=19   height=23   xoffset=1    yoffset=5    xadvance=19   page=0    chnl=0 
char id=1023    x=332  y=466  width=18   height=23   xoffset=0    yoffset=5    xadvance=19   page=0    chnl=0 
char id=1024    x=408  y=99   width=17   height=29   xoffset=2    yoffset=-1   xadvance=19   page=0    chnl=0 
char id=1025    x=41   y=215  width=17   height=27   xoffset=2    yoffset=1    xadvance=19   page=0    chnl=0 
char id=1026    x=350  y=466  width=21   height=23   xoffset=-1   yoffset=5    xadvance=19   page=0    chnl=0 
char id=1027    x=242  y=158  width=16   height=29   xoffset=2    yoffset=-1   xadvance=19   page=0    chnl=0 
char id=1028    x=371  y=466  width=19   height=23   xoffset=1    yoffset=5    xadvance=19   page=0    chnl=0 
char id=1029    x=167  y=420  width=19   height=23   xoffset=-1   yoffset=5    xadvance=19   page=0    chnl=0 
char id=1030    x=16   y=420  width=15   height=23   xoffset=2    yoffset=5    xadvance=19   page=0    chnl=0 
char id=1031    x=58   y=215  width=15   height=27   xoffset=2    yoffset=1    xadvance=19   page=0    chnl=0 
char id=1032    x=31   y=420  width=15   height=23   xoffset=2    yoffset=5    xadvance=19   page=0    chnl=0 
char id=1033    x=390  y=466  width=21   height=23   xoffset=-1   yoffset=5    xadvance=19   page=0    chnl=0 
char id=1034    x=411  y=466  width=20   height=23   xoffset=0    yoffset=5    xadvance=19   page=0    chnl=0 
char id=1035    x=431  y=466  width=21   height=23   xoffset=-1   yoffset=5    xadvance=19   page=0    chnl=0 
char id=1036    x=258  y=158  width=18   height=29   xoffset=2    yoffset=-1   xadvance=19   page=0    chnl=0 
char id=1037    x=129  y=187  width=16   height=28   xoffset=2    yoffset=0    xadvance=19   page=0    chnl=0 
char id=1038    x=276  y=158  width=22   height=29   xoffset=-1   yoffset=-1   xadvance=19   page=0    chnl=0 
char id=1039    x=110  y=69   width=16   height=30   xoffset=1    yoffset=5    xadvance=19   page=0    chnl=0 
char id=1040    x=375  y=396  width=22   height=23   xoffset=-1   yoffset=5    xadvance=19   page=0    chnl=0 
char id=1041    x=452  y=466  width=18   height=23   xoffset=2    yoffset=5    xadvance=19   page=0    chnl=0 
char id=1042    x=397  y=396  width=17   height=23   xoffset=2    yoffset=5    xadvance=19   page=0    chnl=0 
char id=1043    x=403  y=443  width=16   height=23   xoffset=2    yoffset=5    xadvance=19   page=0    chnl=0 
char id=1044    x=126  y=69   width=21   height=30   xoffset=0    yoffset=5    xadvance=19   page=0    chnl=0 
char id=1045    x=449  y=396  width=17   height=23   xoffset=2    yoffset=5    xadvance=19   page=0    chnl=0 
char id=1046    x=470  y=466  width=23   height=23   xoffset=-2   yoffset=5    xadvance=19   page=0    chnl=0 
char id=1048    x=493  y=466  width=16   height=23   xoffset=2    yoffset=5    xadvance=19   page=0    chnl=0 
char id=1049    x=298  y=158  width=16   height=29   xoffset=2    yoffset=-1   xadvance=19   page=0    chnl=0 
char id=1062    x=147  y=69   width=19   height=30   xoffset=1    yoffset=5    xadvance=19   page=0    chnl=0 
char id=1065    x=166  y=69   width=20   height=30   xoffset=0    yoffset=5    xadvance=19   page=0    chnl=0 
char id=1073    x=426  y=243  width=17   height=26   xoffset=1    yoffset=2    xadvance=19   page=0    chnl=0 
char id=1076    x=443  y=243  width=20   height=26   xoffset=0    yoffset=9    xadvance=19   page=0    chnl=0 
char id=1081    x=345  y=346  width=16   height=25   xoffset=2    yoffset=3    xadvance=19   page=0    chnl=0 
char id=1088    x=343  y=215  width=17   height=26   xoffset=1    yoffset=9    xadvance=19   page=0    chnl=0 
char id=1091    x=377  y=215  width=20   height=26   xoffset=0    yoffset=9    xadvance=19   page=0    chnl=0 
char id=1092    x=433  y=0    width=19   height=32   xoffset=0    yoffset=3    xadvance=19   page=0    chnl=0 
char id=1094    x=463  y=243  width=18   height=26   xoffset=2    yoffset=9    xadvance=19   page=0    chnl=0 
char id=1097    x=481  y=243  width=20   height=26   xoffset=0    yoffset=9    xadvance=19   page=0    chnl=0 
char id=1104    x=361  y=346  width=17   height=25   xoffset=1    yoffset=3    xadvance=19   page=0    chnl=0 
char id=1105    x=187  y=371  width=17   height=24   xoffset=1    yoffset=4    xadvance=19   page=0    chnl=0 
char id=1106    x=452  y=0    width=18   height=32   xoffset=0    yoffset=3    xadvance=19   page=0    chnl=0 
char id=1107    x=378  y=346  width=15   height=25   xoffset=3    yoffset=3    xadvance=19   page=0    chnl=0 
char id=1110    x=393  y=346  width=17   height=25   xoffset=1    yoffset=3    xadvance=19   page=0    chnl=0 
char id=1111    x=204  y=371  width=17   height=24   xoffset=1    yoffset=4    xadvance=19   page=0    chnl=0 
char id=1112    x=124  y=37   width=13   height=31   xoffset=1    yoffset=4    xadvance=19   page=0    chnl=0 
char id=1115    x=280  y=321  width=18   height=25   xoffset=0    yoffset=3    xadvance=19   page=0    chnl=0 
char id=1116    x=410  y=346  width=16   height=25   xoffset=2    yoffset=3    xadvance=19   page=0    chnl=0 
char id=1117    x=426  y=346  width=16   height=25   xoffset=2    yoffset=3    xadvance=19   page=0    chnl=0 
char id=1118    x=137  y=37   width=21   height=31   xoffset=-1   yoffset=4    xadvance=19   page=0    chnl=0 
char id=1119    x=0    y=269  width=16   height=26   xoffset=2    yoffset=9    xadvance=19   page=0    chnl=0 
char id=1123    x=442  y=346  width=20   height=25   xoffset=0    yoffset=3    xadvance=19   page=0    chnl=0 
char id=1134    x=0    y=0    width=19   height=37   xoffset=-1   yoffset=-2   xadvance=19   page=0    chnl=0 
char id=1135    x=158  y=37   width=16   height=31   xoffset=1    yoffset=4    xadvance=19   page=0    chnl=0 
char id=1137    x=16   y=269  width=20   height=26   xoffset=-1   yoffset=9    xadvance=19   page=0    chnl=0 
char id=1142    x=145  y=187  width=24   height=28   xoffset=-2   yoffset=0    xadvance=19   page=0    chnl=0 
char id=1143    x=329  y=371  width=21   height=24   xoffset=0    yoffset=4    xadvance=19   page=0    chnl=0 
char id=1144    x=186  y=69   width=21   height=30   xoffset=0    yoffset=5    xadvance=19   page=0    chnl=0 
char id=1145    x=36   y=269  width=21   height=26   xoffset=0    yoffset=9    xadvance=19   page=0    chnl=0 
char id=1146    x=57   y=269  width=18   height=26   xoffset=1    yoffset=3    xadvance=19   page=0    chnl=0 
char id=1147    x=0    y=489  width=19   height=22   xoffset=0    yoffset=8    xadvance=19   page=0    chnl=0 
char id=1148    x=38   y=0    width=21   height=34   xoffset=-1   yoffset=-6   xadvance=19   page=0    chnl=0 
char id=1149    x=314  y=158  width=20   height=29   xoffset=0    yoffset=-1   xadvance=19   page=0    chnl=0 
char id=1150    x=207  y=69   width=19   height=30   xoffset=0    yoffset=-2   xadvance=19   page=0    chnl=0 
char id=1151    x=462  y=346  width=22   height=25   xoffset=-2   yoffset=3    xadvance=19   page=0    chnl=0 
char id=1152    x=226  y=69   width=18   height=30   xoffset=1    yoffset=5    xadvance=19   page=0    chnl=0 
char id=1153    x=75   y=269  width=16   height=26   xoffset=2    yoffset=9    xadvance=19   page=0    chnl=0 
char id=1154    x=91   y=269  width=19   height=26   xoffset=0    yoffset=2    xadvance=19   page=0    chnl=0 
char id=1157    x=505  y=396  width=5    height=8    xoffset=-2   yoffset=3    xadvance=0    page=0    chnl=0 
char id=1158    x=506  y=371  width=5    height=8    xoffset=-2   yoffset=3    xadvance=0    page=0    chnl=0 
char id=1160    x=174  y=37   width=33   height=31   xoffset=-16  yoffset=3    xadvance=0    page=0    chnl=0 
char id=1161    x=470  y=0    width=31   height=32   xoffset=-16  yoffset=2    xadvance=0    page=0    chnl=0 
char id=1162    x=19   y=0    width=19   height=35   xoffset=2    yoffset=0    xadvance=19   page=0    chnl=0 
char id=1163    x=207  y=37   width=19   height=31   xoffset=2    yoffset=2    xadvance=19   page=0    chnl=0 
char id=1165    x=484  y=346  width=17   height=25   xoffset=0    yoffset=3    xadvance=19   page=0    chnl=0 
char id=1167    x=110  y=269  width=18   height=26   xoffset=1    yoffset=9    xadvance=19   page=0    chnl=0 
char id=1168    x=334  y=158  width=16   height=29   xoffset=3    yoffset=-1   xadvance=19   page=0    chnl=0 
char id=1169    x=0    y=371  width=15   height=25   xoffset=3    yoffset=3    xadvance=19   page=0    chnl=0 
char id=1172    x=244  y=69   width=17   height=30   xoffset=2    yoffset=5    xadvance=19   page=0    chnl=0 
char id=1173    x=128  y=269  width=16   height=26   xoffset=2    yoffset=9    xadvance=19   page=0    chnl=0 
char id=1174    x=261  y=69   width=22   height=30   xoffset=-2   yoffset=5    xadvance=19   page=0    chnl=0 
char id=1175    x=144  y=269  width=22   height=26   xoffset=-2   yoffset=9    xadvance=19   page=0    chnl=0 
char id=1176    x=283  y=69   width=19   height=30   xoffset=-1   yoffset=5    xadvance=19   page=0    chnl=0 
char id=1177    x=166  y=269  width=16   height=26   xoffset=1    yoffset=9    xadvance=19   page=0    chnl=0 
char id=1178    x=302  y=69   width=18   height=30   xoffset=2    yoffset=5    xadvance=19   page=0    chnl=0 
char id=1179    x=182  y=269  width=16   height=26   xoffset=2    yoffset=9    xadvance=19   page=0    chnl=0 
char id=1183    x=15   y=371  width=20   height=25   xoffset=0    yoffset=3    xadvance=19   page=0    chnl=0 
char id=1186    x=320  y=69   width=18   height=30   xoffset=2    yoffset=5    xadvance=19   page=0    chnl=0 
char id=1187    x=198  y=269  width=18   height=26   xoffset=2    yoffset=9    xadvance=19   page=0    chnl=0 
char id=1190    x=338  y=69   width=19   height=30   xoffset=0    yoffset=5    xadvance=19   page=0    chnl=0 
char id=1191    x=216  y=269  width=19   height=26   xoffset=0    yoffset=9    xadvance=19   page=0    chnl=0 
char id=1194    x=357  y=69   width=18   height=30   xoffset=1    yoffset=5    xadvance=19   page=0    chnl=0 
char id=1195    x=235  y=269  width=17   height=26   xoffset=1    yoffset=9    xadvance=19   page=0    chnl=0 
char id=1196    x=375  y=69   width=19   height=30   xoffset=0    yoffset=5    xadvance=19   page=0    chnl=0 
char id=1197    x=252  y=269  width=17   height=26   xoffset=1    yoffset=9    xadvance=19   page=0    chnl=0 
char id=1199    x=269  y=269  width=21   height=26   xoffset=-1   yoffset=9    xadvance=19   page=0    chnl=0 
char id=1201    x=290  y=269  width=21   height=26   xoffset=-1   yoffset=9    xadvance=19   page=0    chnl=0 
char id=1202    x=394  y=69   width=21   height=30   xoffset=-1   yoffset=5    xadvance=19   page=0    chnl=0 
char id=1203    x=311  y=269  width=19   height=26   xoffset=0    yoffset=9    xadvance=19   page=0    chnl=0 
char id=1204    x=415  y=69   width=21   height=30   xoffset=-1   yoffset=5    xadvance=19   page=0    chnl=0 
char id=1205    x=330  y=269  width=21   height=26   xoffset=0    yoffset=9    xadvance=19   page=0    chnl=0 
char id=1206    x=436  y=69   width=20   height=30   xoffset=0    yoffset=5    xadvance=19   page=0    chnl=0 
char id=1207    x=351  y=269  width=18   height=26   xoffset=1    yoffset=9    xadvance=19   page=0    chnl=0 
char id=1211    x=179  y=295  width=16   height=25   xoffset=2    yoffset=3    xadvance=19   page=0    chnl=0 
char id=1214    x=169  y=187  width=21   height=28   xoffset=-1   yoffset=5    xadvance=19   page=0    chnl=0 
char id=1215    x=350  y=371  width=21   height=24   xoffset=0    yoffset=9    xadvance=19   page=0    chnl=0 
char id=1217    x=350  y=158  width=21   height=29   xoffset=-1   yoffset=-1   xadvance=19   page=0    chnl=0 
char id=1218    x=369  y=269  width=22   height=26   xoffset=-1   yoffset=2    xadvance=19   page=0    chnl=0 
char id=1219    x=456  y=69   width=18   height=30   xoffset=2    yoffset=5    xadvance=19   page=0    chnl=0 
char id=1220    x=391  y=269  width=16   height=26   xoffset=2    yoffset=9    xadvance=19   page=0    chnl=0 
char id=1221    x=474  y=69   width=22   height=30   xoffset=-1   yoffset=5    xadvance=19   page=0    chnl=0 
char id=1222    x=371  y=371  width=22   height=24   xoffset=-1   yoffset=9    xadvance=19   page=0    chnl=0 
char id=1223    x=0    y=99   width=17   height=30   xoffset=1    yoffset=5    xadvance=19   page=0    chnl=0 
char id=1224    x=407  y=269  width=15   height=26   xoffset=2    yoffset=9    xadvance=19   page=0    chnl=0 
char id=1225    x=17   y=99   width=19   height=30   xoffset=2    yoffset=5    xadvance=19   page=0    chnl=0 
char id=1226    x=393  y=371  width=18   height=24   xoffset=2    yoffset=9    xadvance=19   page=0    chnl=0 
char id=1227    x=36   y=99   width=17   height=30   xoffset=0    yoffset=5    xadvance=19   page=0    chnl=0 
char id=1228    x=422  y=269  width=16   height=26   xoffset=1    yoffset=9    xadvance=19   page=0    chnl=0 
char id=1229    x=53   y=99   width=19   height=30   xoffset=1    yoffset=5    xadvance=19   page=0    chnl=0 
char id=1230    x=411  y=371  width=20   height=24   xoffset=1    yoffset=9    xadvance=19   page=0    chnl=0 
char id=1231    x=229  y=295  width=17   height=25   xoffset=1    yoffset=3    xadvance=19   page=0    chnl=0 
char id=1232    x=190  y=187  width=22   height=28   xoffset=-1   yoffset=0    xadvance=19   page=0    chnl=0 
char id=1233    x=35   y=371  width=18   height=25   xoffset=1    yoffset=3    xadvance=19   page=0    chnl=0 
char id=1234    x=18   y=215  width=23   height=27   xoffset=-2   yoffset=1    xadvance=19   page=0    chnl=0 
char id=1235    x=169  y=371  width=18   height=24   xoffset=1    yoffset=4    xadvance=19   page=0    chnl=0 
char id=1238    x=212  y=187  width=17   height=28   xoffset=2    yoffset=0    xadvance=19   page=0    chnl=0 
char id=1239    x=53   y=371  width=17   height=25   xoffset=1    yoffset=3    xadvance=19   page=0    chnl=0 
char id=1242    x=229  y=187  width=18   height=28   xoffset=1    yoffset=0    xadvance=19   page=0    chnl=0 
char id=1243    x=431  y=371  width=17   height=24   xoffset=1    yoffset=4    xadvance=19   page=0    chnl=0 
char id=1244    x=247  y=187  width=23   height=28   xoffset=-2   yoffset=0    xadvance=19   page=0    chnl=0 
char id=1245    x=448  y=371  width=23   height=24   xoffset=-2   yoffset=4    xadvance=19   page=0    chnl=0 
char id=1246    x=270  y=187  width=19   height=28   xoffset=-1   yoffset=0    xadvance=19   page=0    chnl=0 
char id=1247    x=471  y=371  width=16   height=24   xoffset=1    yoffset=4    xadvance=19   page=0    chnl=0 
char id=1248    x=487  y=371  width=19   height=24   xoffset=0    yoffset=4    xadvance=19   page=0    chnl=0 
char id=1249    x=438  y=269  width=17   height=26   xoffset=1    yoffset=9    xadvance=19   page=0    chnl=0 
char id=1250    x=289  y=187  width=16   height=28   xoffset=2    yoffset=0    xadvance=19   page=0    chnl=0 
char id=1252    x=305  y=187  width=16   height=28   xoffset=2    yoffset=0    xadvance=19   page=0    chnl=0 
char id=1253    x=0    y=396  width=16   height=24   xoffset=2    yoffset=4    xadvance=19   page=0    chnl=0 
char id=1254    x=321  y=187  width=18   height=28   xoffset=1    yoffset=0    xadvance=19   page=0    chnl=0 
char id=1255    x=16   y=396  width=17   height=24   xoffset=1    yoffset=4    xadvance=19   page=0    chnl=0 
char id=1258    x=339  y=187  width=18   height=28   xoffset=1    yoffset=0    xadvance=19   page=0    chnl=0 
char id=1259    x=33   y=396  width=17   height=24   xoffset=1    yoffset=4    xadvance=19   page=0    chnl=0 
char id=1260    x=357  y=187  width=18   height=28   xoffset=0    yoffset=0    xadvance=19   page=0    chnl=0 
char id=1261    x=50   y=396  width=18   height=24   xoffset=0    yoffset=4    xadvance=19   page=0    chnl=0 
char id=1262    x=287  y=215  width=21   height=27   xoffset=-1   yoffset=1    xadvance=19   page=0    chnl=0 
char id=1263    x=72   y=99   width=21   height=30   xoffset=-1   yoffset=5    xadvance=19   page=0    chnl=0 
char id=1264    x=375  y=187  width=22   height=28   xoffset=-2   yoffset=0    xadvance=19   page=0    chnl=0 
char id=1265    x=93   y=99   width=21   height=30   xoffset=-1   yoffset=5    xadvance=19   page=0    chnl=0 
char id=1266    x=397  y=187  width=22   height=28   xoffset=-2   yoffset=0    xadvance=19   page=0    chnl=0 
char id=1267    x=226  y=37   width=20   height=31   xoffset=0    yoffset=4    xadvance=19   page=0    chnl=0 
char id=1268    x=419  y=187  width=17   height=28   xoffset=0    yoffset=0    xadvance=19   page=0    chnl=0 
char id=1269    x=68   y=396  width=16   height=24   xoffset=1    yoffset=4    xadvance=19   page=0    chnl=0 
char id=1270    x=114  y=99   width=16   height=30   xoffset=2    yoffset=5    xadvance=19   page=0    chnl=0 
char id=1271    x=455  y=269  width=15   height=26   xoffset=3    yoffset=9    xadvance=19   page=0    chnl=0 
char id=1272    x=436  y=187  width=18   height=28   xoffset=1    yoffset=0    xadvance=19   page=0    chnl=0 
char id=1273    x=84   y=396  width=18   height=24   xoffset=1    yoffset=4    xadvance=19   page=0    chnl=0 
char id=1274    x=130  y=99   width=19   height=30   xoffset=0    yoffset=5    xadvance=19   page=0    chnl=0 
char id=1275    x=470  y=269  width=17   height=26   xoffset=0    yoffset=9    xadvance=19   page=0    chnl=0 
char id=1276    x=149  y=99   width=21   height=30   xoffset=-1   yoffset=5    xadvance=19   page=0    chnl=0 
char id=1277    x=487  y=269  width=18   height=26   xoffset=1    yoffset=9    xadvance=19   page=0    chnl=0 
char id=1281    x=0    y=295  width=17   height=26   xoffset=1    yoffset=2    xadvance=19   page=0    chnl=0 
char id=1283    x=70   y=371  width=18   height=25   xoffset=1    yoffset=3    xadvance=19   page=0    chnl=0 
char id=1286    x=170  y=99   width=21   height=30   xoffset=-1   yoffset=5    xadvance=19   page=0    chnl=0 
char id=1287    x=17   y=295  width=18   height=26   xoffset=0    yoffset=9    xadvance=19   page=0    chnl=0 
char id=1298    x=191  y=99   width=20   height=30   xoffset=-1   yoffset=5    xadvance=19   page=0    chnl=0 
char id=1299    x=35   y=295  width=19   height=26   xoffset=-1   yoffset=9    xadvance=19   page=0    chnl=0 
char id=1306    x=285  y=99   width=18   height=29   xoffset=1    yoffset=5    xadvance=19   page=0    chnl=0 
char id=1307    x=360  y=215  width=17   height=26   xoffset=1    yoffset=9    xadvance=19   page=0    chnl=0 
char id=8199    x=0    y=0    width=0    height=0    xoffset=-1   yoffset=26   xadvance=19   page=0    chnl=0 
char id=8204    x=501  y=243  width=4    height=26   xoffset=-2   yoffset=6    xadvance=0    page=0    chnl=0 
char id=8224    x=454  y=187  width=16   height=28   xoffset=1    yoffset=3    xadvance=19   page=0    chnl=0 
char id=8225    x=470  y=187  width=16   height=28   xoffset=1    yoffset=3    xadvance=19   page=0    chnl=0 
char id=8240    x=102  y=396  width=22   height=24   xoffset=-1   yoffset=4    xadvance=19   page=0    chnl=0 
char id=8242    x=504  y=420  width=5    height=12   xoffset=7    yoffset=3    xadvance=19   page=0    chnl=0 
char id=8249    x=501  y=0    width=10   height=14   xoffset=4    yoffset=12   xadvance=19   page=0    chnl=0 
char id=8252    x=497  y=443  width=14   height=23   xoffset=3    yoffset=5    xadvance=19   page=0    chnl=0 
char id=8286    x=499  y=321  width=5    height=25   xoffset=7    yoffset=3    xadvance=19   page=0    chnl=0 
char id=8352    x=88   y=371  width=20   height=25   xoffset=0    yoffset=3    xadvance=19   page=0    chnl=0 
char id=8353    x=308  y=215  width=18   height=27   xoffset=1    yoffset=3    xadvance=19   page=0    chnl=0 
char id=8357    x=54   y=295  width=19   height=26   xoffset=0    yoffset=5    xadvance=19   page=0    chnl=0 
char id=8363    x=211  y=99   width=18   height=30   xoffset=1    yoffset=3    xadvance=19   page=0    chnl=0 
char id=8367    x=486  y=187  width=21   height=28   xoffset=-1   yoffset=5    xadvance=19   page=0    chnl=0 
char id=8368    x=0    y=37   width=19   height=32   xoffset=-1   yoffset=3    xadvance=19   page=0    chnl=0 
char id=8370    x=0    y=215  width=18   height=28   xoffset=1    yoffset=3    xadvance=19   page=0    chnl=0 
char id=8373    x=371  y=158  width=19   height=29   xoffset=1    yoffset=3    xadvance=19   page=0    chnl=0 
char id=11361   x=501  y=346  width=8    height=25   xoffset=5    yoffset=3    xadvance=19   page=0    chnl=0 
char id=11364   x=229  y=99   width=18   height=30   xoffset=2    yoffset=5    xadvance=19   page=0    chnl=0 
char id=11365   x=19   y=37   width=20   height=32   xoffset=0    yoffset=3    xadvance=19   page=0    chnl=0 
char id=11366   x=39   y=37   width=18   height=32   xoffset=1    yoffset=3    xadvance=19   page=0    chnl=0 
char id=11367   x=320  y=69   width=18   height=30   xoffset=2    yoffset=5    xadvance=19   page=0    chnl=0 
char id=11368   x=57   y=37   width=18   height=32   xoffset=2    yoffset=3    xadvance=19   page=0    chnl=0 
char id=11369   x=247  y=99   width=19   height=30   xoffset=1    yoffset=5    xadvance=19   page=0    chnl=0 
char id=11370   x=75   y=37   width=16   height=32   xoffset=3    yoffset=3    xadvance=19   page=0    chnl=0 
char id=11371   x=266  y=99   width=19   height=30   xoffset=0    yoffset=5    xadvance=19   page=0    chnl=0 
char id=11372   x=73   y=295  width=17   height=26   xoffset=1    yoffset=9    xadvance=19   page=0    chnl=0 
char id=11383   x=75   y=489  width=20   height=20   xoffset=0    yoffset=8    xadvance=19   page=0    chnl=0 
char id=0       x=476  y=107  width=16   height=14   xoffset=0    yoffset=14   xadvance=19   page=1    chnl=0 
char id=13      x=476  y=107  width=16   height=14   xoffset=0    yoffset=14   xadvance=19   page=1    chnl=0 
char id=34      x=64   y=126  width=12   height=12   xoffset=4    yoffset=3    xadvance=19   page=1    chnl=0 
char id=42      x=492  y=107  width=14   height=14   xoffset=3    yoffset=3    xadvance=19   page=1    chnl=0 
char id=43      x=323  y=107  width=18   height=17   xoffset=1    yoffset=8    xadvance=19   page=1    chnl=0 
char id=44      x=502  y=88   width=9    height=12   xoffset=3    yoffset=22   xadvance=19   page=1    chnl=0 
char id=45      x=370  y=126  width=11   height=5    xoffset=4    yoffset=16   xadvance=19   page=1    chnl=0 
char id=61      x=46   y=126  width=18   height=13   xoffset=1    yoffset=10   xadvance=19   page=1    chnl=0 
char id=94      x=399  y=107  width=18   height=16   xoffset=1    yoffset=5    xadvance=19   page=1    chnl=0 
char id=95      x=381  y=126  width=21   height=5    xoffset=-1   yoffset=26   xadvance=19   page=1    chnl=0 
char id=96      x=321  y=126  width=9    height=6    xoffset=5    yoffset=3    xadvance=19   page=1    chnl=0 
char id=126     x=330  y=126  width=18   height=6    xoffset=1    yoffset=13   xadvance=19   page=1    chnl=0 
char id=164     x=341  y=107  width=18   height=17   xoffset=1    yoffset=8    xadvance=19   page=1    chnl=0 
char id=168     x=402  y=126  width=11   height=5    xoffset=4    yoffset=4    xadvance=19   page=1    chnl=0 
char id=170     x=417  y=107  width=15   height=16   xoffset=2    yoffset=2    xadvance=19   page=1    chnl=0 
char id=171     x=0    y=126  width=18   height=14   xoffset=1    yoffset=12   xadvance=19   page=1    chnl=0 
char id=172     x=76   y=126  width=19   height=12   xoffset=0    yoffset=14   xadvance=19   page=1    chnl=0 
char id=173     x=370  y=126  width=11   height=5    xoffset=4    yoffset=16   xadvance=19   page=1    chnl=0 
char id=175     x=381  y=126  width=21   height=5    xoffset=-1   yoffset=0    xadvance=19   page=1    chnl=0 
char id=176     x=217  y=126  width=11   height=11   xoffset=4    yoffset=5    xadvance=19   page=1    chnl=0 
char id=178     x=359  y=107  width=11   height=17   xoffset=4    yoffset=3    xadvance=19   page=1    chnl=0 
char id=179     x=370  y=107  width=12   height=17   xoffset=3    yoffset=3    xadvance=19   page=1    chnl=0 
char id=180     x=348  y=126  width=9    height=6    xoffset=5    yoffset=3    xadvance=19   page=1    chnl=0 
char id=184     x=239  y=126  width=9    height=10   xoffset=0    yoffset=26   xadvance=19   page=1    chnl=0 
char id=185     x=432  y=107  width=12   height=16   xoffset=4    yoffset=3    xadvance=19   page=1    chnl=0 
char id=186     x=444  y=107  width=14   height=16   xoffset=3    yoffset=2    xadvance=19   page=1    chnl=0 
char id=187     x=18   y=126  width=18   height=14   xoffset=1    yoffset=12   xadvance=19   page=1    chnl=0 
char id=215     x=382  y=107  width=17   height=17   xoffset=1    yoffset=8    xadvance=19   page=1    chnl=0 
char id=247     x=458  y=107  width=18   height=16   xoffset=1    yoffset=9    xadvance=19   page=1    chnl=0 
char id=885     x=503  y=69   width=7    height=7    xoffset=1    yoffset=28   xadvance=0    page=1    chnl=0 
char id=900     x=293  y=126  width=7    height=7    xoffset=6    yoffset=2    xadvance=19   page=1    chnl=0 
char id=901     x=261  y=126  width=12   height=8    xoffset=4    yoffset=1    xadvance=19   page=1    chnl=0 
char id=945     x=0    y=69   width=19   height=19   xoffset=1    yoffset=9    xadvance=19   page=1    chnl=0 
char id=949     x=19   y=69   width=17   height=19   xoffset=2    yoffset=9    xadvance=19   page=1    chnl=0 
char id=953     x=36   y=69   width=18   height=19   xoffset=1    yoffset=9    xadvance=19   page=1    chnl=0 
char id=954     x=54   y=69   width=17   height=19   xoffset=3    yoffset=9    xadvance=19   page=1    chnl=0 
char id=957     x=71   y=69   width=18   height=19   xoffset=0    yoffset=9    xadvance=19   page=1    chnl=0 
char id=959     x=89   y=69   width=17   height=19   xoffset=1    yoffset=9    xadvance=19   page=1    chnl=0 
char id=960     x=106  y=69   width=21   height=19   xoffset=-1   yoffset=9    xadvance=19   page=1    chnl=0 
char id=963     x=127  y=69   width=20   height=19   xoffset=0    yoffset=9    xadvance=19   page=1    chnl=0 
char id=964     x=147  y=69   width=17   height=19   xoffset=1    yoffset=9    xadvance=19   page=1    chnl=0 
char id=965     x=164  y=69   width=17   height=19   xoffset=2    yoffset=9    xadvance=19   page=1    chnl=0 
char id=982     x=181  y=69   width=20   height=19   xoffset=0    yoffset=9    xadvance=19   page=1    chnl=0 
char id=1003    x=201  y=69   width=22   height=19   xoffset=-1   yoffset=9    xadvance=19   page=1    chnl=0 
char id=1005    x=223  y=69   width=17   height=19   xoffset=1    yoffset=9    xadvance=19   page=1    chnl=0 
char id=1008    x=240  y=69   width=20   height=19   xoffset=0    yoffset=9    xadvance=19   page=1    chnl=0 
char id=1010    x=260  y=69   width=17   height=19   xoffset=1    yoffset=9    xadvance=19   page=1    chnl=0 
char id=1013    x=277  y=69   width=17   height=19   xoffset=1    yoffset=9    xadvance=19   page=1    chnl=0 
char id=1014    x=294  y=69   width=17   height=19   xoffset=1    yoffset=9    xadvance=19   page=1    chnl=0 
char id=1047    x=0    y=0    width=19   height=23   xoffset=0    yoffset=5    xadvance=19   page=1    chnl=0 
char id=1050    x=19   y=0    width=18   height=23   xoffset=2    yoffset=5    xadvance=19   page=1    chnl=0 
char id=1051    x=37   y=0    width=20   height=23   xoffset=-1   yoffset=5    xadvance=19   page=1    chnl=0 
char id=1052    x=57   y=0    width=17   height=23   xoffset=1    yoffset=5    xadvance=19   page=1    chnl=0 
char id=1053    x=74   y=0    width=16   height=23   xoffset=2    yoffset=5    xadvance=19   page=1    chnl=0 
char id=1054    x=90   y=0    width=18   height=23   xoffset=1    yoffset=5    xadvance=19   page=1    chnl=0 
char id=1055    x=108  y=0    width=16   height=23   xoffset=2    yoffset=5    xadvance=19   page=1    chnl=0 
char id=1056    x=124  y=0    width=17   height=23   xoffset=2    yoffset=5    xadvance=19   page=1    chnl=0 
char id=1057    x=141  y=0    width=18   height=23   xoffset=1    yoffset=5    xadvance=19   page=1    chnl=0 
char id=1058    x=159  y=0    width=19   height=23   xoffset=0    yoffset=5    xadvance=19   page=1    chnl=0 
char id=1059    x=178  y=0    width=21   height=23   xoffset=-1   yoffset=5    xadvance=19   page=1    chnl=0 
char id=1060    x=199  y=0    width=21   height=23   xoffset=0    yoffset=5    xadvance=19   page=1    chnl=0 
char id=1061    x=220  y=0    width=21   height=23   xoffset=-1   yoffset=5    xadvance=19   page=1    chnl=0 
char id=1063    x=241  y=0    width=17   height=23   xoffset=0    yoffset=5    xadvance=19   page=1    chnl=0 
char id=1064    x=258  y=0    width=19   height=23   xoffset=0    yoffset=5    xadvance=19   page=1    chnl=0 
char id=1066    x=277  y=0    width=20   height=23   xoffset=-1   yoffset=5    xadvance=19   page=1    chnl=0 
char id=1067    x=297  y=0    width=18   height=23   xoffset=1    yoffset=5    xadvance=19   page=1    chnl=0 
char id=1068    x=315  y=0    width=18   height=23   xoffset=2    yoffset=5    xadvance=19   page=1    chnl=0 
char id=1069    x=333  y=0    width=18   height=23   xoffset=0    yoffset=5    xadvance=19   page=1    chnl=0 
char id=1070    x=351  y=0    width=19   height=23   xoffset=0    yoffset=5    xadvance=19   page=1    chnl=0 
char id=1071    x=370  y=0    width=18   height=23   xoffset=0    yoffset=5    xadvance=19   page=1    chnl=0 
char id=1072    x=311  y=69   width=18   height=19   xoffset=1    yoffset=9    xadvance=19   page=1    chnl=0 
char id=1074    x=329  y=69   width=16   height=19   xoffset=2    yoffset=9    xadvance=19   page=1    chnl=0 
char id=1075    x=345  y=69   width=15   height=19   xoffset=3    yoffset=9    xadvance=19   page=1    chnl=0 
char id=1077    x=360  y=69   width=17   height=19   xoffset=1    yoffset=9    xadvance=19   page=1    chnl=0 
char id=1078    x=377  y=69   width=23   height=19   xoffset=-2   yoffset=9    xadvance=19   page=1    chnl=0 
char id=1079    x=400  y=69   width=17   height=19   xoffset=0    yoffset=9    xadvance=19   page=1    chnl=0 
char id=1080    x=417  y=69   width=16   height=19   xoffset=2    yoffset=9    xadvance=19   page=1    chnl=0 
char id=1082    x=433  y=69   width=17   height=19   xoffset=2    yoffset=9    xadvance=19   page=1    chnl=0 
char id=1083    x=450  y=69   width=19   height=19   xoffset=-1   yoffset=9    xadvance=19   page=1    chnl=0 
char id=1084    x=469  y=69   width=18   height=19   xoffset=1    yoffset=9    xadvance=19   page=1    chnl=0 
char id=1085    x=487  y=69   width=16   height=19   xoffset=2    yoffset=9    xadvance=19   page=1    chnl=0 
char id=1086    x=89   y=69   width=17   height=19   xoffset=1    yoffset=9    xadvance=19   page=1    chnl=0 
char id=1087    x=0    y=88   width=16   height=19   xoffset=2    yoffset=9    xadvance=19   page=1    chnl=0 
char id=1089    x=260  y=69   width=17   height=19   xoffset=1    yoffset=9    xadvance=19   page=1    chnl=0 
char id=1090    x=16   y=88   width=17   height=19   xoffset=1    yoffset=9    xadvance=19   page=1    chnl=0 
char id=1093    x=33   y=88   width=19   height=19   xoffset=0    yoffset=9    xadvance=19   page=1    chnl=0 
char id=1095    x=52   y=88   width=16   height=19   xoffset=1    yoffset=9    xadvance=19   page=1    chnl=0 
char id=1096    x=68   y=88   width=19   height=19   xoffset=1    yoffset=9    xadvance=19   page=1    chnl=0 
char id=1098    x=87   y=88   width=20   height=19   xoffset=-1   yoffset=9    xadvance=19   page=1    chnl=0 
char id=1099    x=107  y=88   width=18   height=19   xoffset=1    yoffset=9    xadvance=19   page=1    chnl=0 
char id=1100    x=125  y=88   width=15   height=19   xoffset=2    yoffset=9    xadvance=19   page=1    chnl=0 
char id=1101    x=140  y=88   width=18   height=19   xoffset=0    yoffset=9    xadvance=19   page=1    chnl=0 
char id=1102    x=158  y=88   width=19   height=19   xoffset=0    yoffset=9    xadvance=19   page=1    chnl=0 
char id=1103    x=177  y=88   width=17   height=19   xoffset=0    yoffset=9    xadvance=19   page=1    chnl=0 
char id=1108    x=194  y=88   width=18   height=19   xoffset=1    yoffset=9    xadvance=19   page=1    chnl=0 
char id=1109    x=212  y=88   width=16   height=19   xoffset=1    yoffset=9    xadvance=19   page=1    chnl=0 
char id=1113    x=228  y=88   width=21   height=19   xoffset=0    yoffset=9    xadvance=19   page=1    chnl=0 
char id=1114    x=249  y=88   width=20   height=19   xoffset=0    yoffset=9    xadvance=19   page=1    chnl=0 
char id=1120    x=388  y=0    width=19   height=23   xoffset=0    yoffset=5    xadvance=19   page=1    chnl=0 
char id=1121    x=269  y=88   width=22   height=19   xoffset=-2   yoffset=9    xadvance=19   page=1    chnl=0 
char id=1122    x=407  y=0    width=20   height=23   xoffset=0    yoffset=5    xadvance=19   page=1    chnl=0 
char id=1124    x=427  y=0    width=21   height=23   xoffset=0    yoffset=5    xadvance=19   page=1    chnl=0 
char id=1125    x=291  y=88   width=19   height=19   xoffset=1    yoffset=9    xadvance=19   page=1    chnl=0 
char id=1126    x=448  y=0    width=23   height=23   xoffset=-2   yoffset=5    xadvance=19   page=1    chnl=0 
char id=1127    x=310  y=88   width=21   height=19   xoffset=-1   yoffset=9    xadvance=19   page=1    chnl=0 
char id=1128    x=471  y=0    width=21   height=23   xoffset=0    yoffset=5    xadvance=19   page=1    chnl=0 
char id=1129    x=331  y=88   width=20   height=19   xoffset=1    yoffset=9    xadvance=19   page=1    chnl=0 
char id=1130    x=0    y=23   width=21   height=23   xoffset=0    yoffset=5    xadvance=19   page=1    chnl=0 
char id=1131    x=351  y=88   width=21   height=19   xoffset=0    yoffset=9    xadvance=19   page=1    chnl=0 
char id=1132    x=21   y=23   width=20   height=23   xoffset=0    yoffset=5    xadvance=19   page=1    chnl=0 
char id=1133    x=372  y=88   width=20   height=19   xoffset=0    yoffset=9    xadvance=19   page=1    chnl=0 
char id=1136    x=41   y=23   width=21   height=23   xoffset=-2   yoffset=5    xadvance=19   page=1    chnl=0 
char id=1138    x=492  y=0    width=18   height=23   xoffset=1    yoffset=5    xadvance=19   page=1    chnl=0 
char id=1139    x=392  y=88   width=17   height=19   xoffset=1    yoffset=9    xadvance=19   page=1    chnl=0 
char id=1140    x=62   y=23   width=23   height=23   xoffset=-1   yoffset=5    xadvance=19   page=1    chnl=0 
char id=1141    x=409  y=88   width=21   height=19   xoffset=0    yoffset=9    xadvance=19   page=1    chnl=0 
char id=1155    x=248  y=126  width=13   height=9    xoffset=-6   yoffset=2    xadvance=0    page=1    chnl=0 
char id=1156    x=357  y=126  width=13   height=6    xoffset=-7   yoffset=3    xadvance=0    page=1    chnl=0 
char id=1159    x=273  y=126  width=20   height=8    xoffset=-10  yoffset=-1   xadvance=0    page=1    chnl=0 
char id=1164    x=85   y=23   width=20   height=23   xoffset=0    yoffset=5    xadvance=19   page=1    chnl=0 
char id=1166    x=105  y=23   width=18   height=23   xoffset=2    yoffset=5    xadvance=19   page=1    chnl=0 
char id=1170    x=123  y=23   width=19   height=23   xoffset=0    yoffset=5    xadvance=19   page=1    chnl=0 
char id=1171    x=430  y=88   width=16   height=19   xoffset=1    yoffset=9    xadvance=19   page=1    chnl=0 
char id=1180    x=142  y=23   width=19   height=23   xoffset=2    yoffset=5    xadvance=19   page=1    chnl=0 
char id=1181    x=446  y=88   width=17   height=19   xoffset=2    yoffset=9    xadvance=19   page=1    chnl=0 
char id=1182    x=161  y=23   width=20   height=23   xoffset=0    yoffset=5    xadvance=19   page=1    chnl=0 
char id=1184    x=181  y=23   width=22   height=23   xoffset=-1   yoffset=5    xadvance=19   page=1    chnl=0 
char id=1185    x=463  y=88   width=20   height=19   xoffset=-1   yoffset=9    xadvance=19   page=1    chnl=0 
char id=1188    x=203  y=23   width=19   height=23   xoffset=1    yoffset=5    xadvance=19   page=1    chnl=0 
char id=1189    x=483  y=88   width=19   height=19   xoffset=1    yoffset=9    xadvance=19   page=1    chnl=0 
char id=1192    x=222  y=23   width=21   height=23   xoffset=0    yoffset=5    xadvance=19   page=1    chnl=0 
char id=1193    x=0    y=107  width=19   height=19   xoffset=1    yoffset=9    xadvance=19   page=1    chnl=0 
char id=1198    x=243  y=23   width=21   height=23   xoffset=-1   yoffset=5    xadvance=19   page=1    chnl=0 
char id=1200    x=264  y=23   width=22   height=23   xoffset=-1   yoffset=5    xadvance=19   page=1    chnl=0 
char id=1208    x=286  y=23   width=17   height=23   xoffset=0    yoffset=5    xadvance=19   page=1    chnl=0 
char id=1209    x=19   y=107  width=16   height=19   xoffset=1    yoffset=9    xadvance=19   page=1    chnl=0 
char id=1210    x=303  y=23   width=17   height=23   xoffset=2    yoffset=5    xadvance=19   page=1    chnl=0 
char id=1212    x=320  y=23   width=21   height=23   xoffset=-1   yoffset=5    xadvance=19   page=1    chnl=0 
char id=1213    x=35   y=107  width=21   height=19   xoffset=0    yoffset=9    xadvance=19   page=1    chnl=0 
char id=1216    x=341  y=23   width=15   height=23   xoffset=2    yoffset=5    xadvance=19   page=1    chnl=0 
char id=1236    x=356  y=23   width=22   height=23   xoffset=-2   yoffset=5    xadvance=19   page=1    chnl=0 
char id=1237    x=56   y=107  width=21   height=19   xoffset=0    yoffset=9    xadvance=19   page=1    chnl=0 
char id=1240    x=378  y=23   width=18   height=23   xoffset=1    yoffset=5    xadvance=19   page=1    chnl=0 
char id=1241    x=77   y=107  width=17   height=19   xoffset=1    yoffset=9    xadvance=19   page=1    chnl=0 
char id=1251    x=396  y=23   width=16   height=23   xoffset=2    yoffset=5    xadvance=19   page=1    chnl=0 
char id=1256    x=412  y=23   width=18   height=23   xoffset=1    yoffset=5    xadvance=19   page=1    chnl=0 
char id=1257    x=94   y=107  width=17   height=19   xoffset=1    yoffset=9    xadvance=19   page=1    chnl=0 
char id=1278    x=430  y=23   width=22   height=23   xoffset=-1   yoffset=5    xadvance=19   page=1    chnl=0 
char id=1279    x=111  y=107  width=18   height=19   xoffset=0    yoffset=9    xadvance=19   page=1    chnl=0 
char id=1280    x=452  y=23   width=17   height=23   xoffset=1    yoffset=5    xadvance=19   page=1    chnl=0 
char id=1282    x=469  y=23   width=21   height=23   xoffset=0    yoffset=5    xadvance=19   page=1    chnl=0 
char id=1284    x=0    y=46   width=22   height=23   xoffset=-2   yoffset=5    xadvance=19   page=1    chnl=0 
char id=1285    x=129  y=107  width=21   height=19   xoffset=-1   yoffset=9    xadvance=19   page=1    chnl=0 
char id=1288    x=490  y=23   width=21   height=23   xoffset=-1   yoffset=5    xadvance=19   page=1    chnl=0 
char id=1289    x=150  y=107  width=20   height=19   xoffset=0    yoffset=9    xadvance=19   page=1    chnl=0 
char id=1290    x=22   y=46   width=18   height=23   xoffset=1    yoffset=5    xadvance=19   page=1    chnl=0 
char id=1291    x=170  y=107  width=19   height=19   xoffset=0    yoffset=9    xadvance=19   page=1    chnl=0 
char id=1292    x=40   y=46   width=18   height=23   xoffset=1    yoffset=5    xadvance=19   page=1    chnl=0 
char id=1293    x=189  y=107  width=17   height=19   xoffset=1    yoffset=9    xadvance=19   page=1    chnl=0 
char id=1294    x=58   y=46   width=20   height=23   xoffset=0    yoffset=5    xadvance=19   page=1    chnl=0 
char id=1295    x=206  y=107  width=21   height=19   xoffset=0    yoffset=9    xadvance=19   page=1    chnl=0 
char id=1296    x=78   y=46   width=19   height=23   xoffset=0    yoffset=5    xadvance=19   page=1    chnl=0 
char id=1297    x=19   y=69   width=17   height=19   xoffset=2    yoffset=9    xadvance=19   page=1    chnl=0 
char id=1308    x=97   y=46   width=22   height=23   xoffset=-1   yoffset=5    xadvance=19   page=1    chnl=0 
char id=1309    x=227  y=107  width=21   height=19   xoffset=-1   yoffset=9    xadvance=19   page=1    chnl=0 
char id=8210    x=413  y=126  width=16   height=5    xoffset=2    yoffset=16   xadvance=19   page=1    chnl=0 
char id=8211    x=413  y=126  width=16   height=5    xoffset=2    yoffset=16   xadvance=19   page=1    chnl=0 
char id=8212    x=429  y=126  width=22   height=5    xoffset=-1   yoffset=16   xadvance=19   page=1    chnl=0 
char id=8213    x=429  y=126  width=22   height=5    xoffset=-1   yoffset=16   xadvance=19   page=1    chnl=0 
char id=8215    x=300  y=126  width=21   height=7    xoffset=-1   yoffset=28   xadvance=19   page=1    chnl=0 
char id=8216    x=95   y=126  width=9    height=12   xoffset=5    yoffset=3    xadvance=19   page=1    chnl=0 
char id=8217    x=104  y=126  width=10   height=12   xoffset=5    yoffset=3    xadvance=19   page=1    chnl=0 
char id=8218    x=114  y=126  width=10   height=12   xoffset=4    yoffset=22   xadvance=19   page=1    chnl=0 
char id=8219    x=124  y=126  width=9    height=12   xoffset=5    yoffset=3    xadvance=19   page=1    chnl=0 
char id=8220    x=133  y=126  width=17   height=12   xoffset=1    yoffset=3    xadvance=19   page=1    chnl=0 
char id=8221    x=150  y=126  width=17   height=12   xoffset=1    yoffset=3    xadvance=19   page=1    chnl=0 
char id=8222    x=167  y=126  width=17   height=12   xoffset=1    yoffset=22   xadvance=19   page=1    chnl=0 
char id=8223    x=184  y=126  width=17   height=12   xoffset=1    yoffset=3    xadvance=19   page=1    chnl=0 
char id=8226    x=228  y=126  width=11   height=11   xoffset=4    yoffset=11   xadvance=19   page=1    chnl=0 
char id=8230    x=451  y=126  width=18   height=5    xoffset=1    yoffset=23   xadvance=19   page=1    chnl=0 
char id=8243    x=64   y=126  width=12   height=12   xoffset=4    yoffset=3    xadvance=19   page=1    chnl=0 
char id=8244    x=201  y=126  width=16   height=12   xoffset=2    yoffset=3    xadvance=19   page=1    chnl=0 
char id=8250    x=36   y=126  width=10   height=14   xoffset=5    yoffset=12   xadvance=19   page=1    chnl=0 
char id=8254    x=381  y=126  width=21   height=5    xoffset=-1   yoffset=1    xadvance=19   page=1    chnl=0 
char id=8260    x=119  y=46   width=15   height=23   xoffset=2    yoffset=5    xadvance=19   page=1    chnl=0 
char id=8354    x=134  y=46   width=18   height=23   xoffset=1    yoffset=5    xadvance=19   page=1    chnl=0 
char id=8355    x=152  y=46   width=19   height=23   xoffset=0    yoffset=5    xadvance=19   page=1    chnl=0 
char id=8356    x=171  y=46   width=19   height=23   xoffset=0    yoffset=5    xadvance=19   page=1    chnl=0 
char id=8358    x=190  y=46   width=20   height=23   xoffset=0    yoffset=5    xadvance=19   page=1    chnl=0 
char id=8359    x=210  y=46   width=20   height=23   xoffset=0    yoffset=5    xadvance=19   page=1    chnl=0 
char id=8360    x=230  y=46   width=21   height=23   xoffset=0    yoffset=5    xadvance=19   page=1    chnl=0 
char id=8361    x=251  y=46   width=21   height=23   xoffset=-1   yoffset=5    xadvance=19   page=1    chnl=0 
char id=8364    x=272  y=46   width=18   height=23   xoffset=0    yoffset=5    xadvance=19   page=1    chnl=0 
char id=8365    x=290  y=46   width=22   height=23   xoffset=0    yoffset=5    xadvance=19   page=1    chnl=0 
char id=8366    x=312  y=46   width=19   height=23   xoffset=0    yoffset=5    xadvance=19   page=1    chnl=0 
char id=8369    x=331  y=46   width=21   height=23   xoffset=0    yoffset=5    xadvance=19   page=1    chnl=0 
char id=8371    x=352  y=46   width=21   height=23   xoffset=-1   yoffset=5    xadvance=19   page=1    chnl=0 
char id=8372    x=373  y=46   width=21   height=23   xoffset=0    yoffset=5    xadvance=19   page=1    chnl=0 
char id=11360   x=394  y=46   width=18   height=23   xoffset=0    yoffset=5    xadvance=19   page=1    chnl=0 
char id=11362   x=412  y=46   width=19   height=23   xoffset=0    yoffset=5    xadvance=19   page=1    chnl=0 
char id=11363   x=431  y=46   width=19   height=23   xoffset=0    yoffset=5    xadvance=19   page=1    chnl=0 
char id=11373   x=450  y=46   width=17   height=23   xoffset=1    yoffset=5    xadvance=19   page=1    chnl=0 
char id=11377   x=248  y=107  width=21   height=19   xoffset=0    yoffset=9    xadvance=19   page=1    chnl=0 
char id=11378   x=467  y=46   width=23   height=23   xoffset=-1   yoffset=5    xadvance=19   page=1    chnl=0 
char id=11379   x=269  y=107  width=22   height=19   xoffset=-1   yoffset=9    xadvance=19   page=1    chnl=0 
char id=11380   x=291  y=107  width=19   height=19   xoffset=0    yoffset=9    xadvance=19   page=1    chnl=0 
char id=11381   x=490  y=46   width=15   height=23   xoffset=2    yoffset=5    xadvance=19   page=1    chnl=0 
char id=11382   x=310  y=107  width=13   height=19   xoffset=3    yoffset=9    xadvance=19   page=1    chnl=0 
kernings count=0
